\relax 
\providecommand\hyper@newdestlabel[2]{}
\catcode `"\active 
\catcode `-\active 
\catcode `^\active 
\catcode `'\active 
\providecommand\HyperFirstAtBeginDocument{\AtBeginDocument}
\HyperFirstAtBeginDocument{\ifx\hyper@anchor\@undefined
\global\let\oldcontentsline\contentsline
\gdef\contentsline#1#2#3#4{\oldcontentsline{#1}{#2}{#3}}
\global\let\oldnewlabel\newlabel
\gdef\newlabel#1#2{\newlabelxx{#1}#2}
\gdef\newlabelxx#1#2#3#4#5#6{\oldnewlabel{#1}{{#2}{#3}}}
\AtEndDocument{\ifx\hyper@anchor\@undefined
\let\contentsline\oldcontentsline
\let\newlabel\oldnewlabel
\fi}
\fi}
\global\let\hyper@last\relax 
\gdef\HyperFirstAtBeginDocument#1{#1}
\providecommand\HyField@AuxAddToFields[1]{}
\providecommand\HyField@AuxAddToCoFields[2]{}
\select@language{english}
\@writefile{toc}{\select@language{english}}
\@writefile{lof}{\select@language{english}}
\@writefile{lot}{\select@language{english}}
\@writefile{toc}{\contentsline {chapter}{\numberline {1}Introduction}{3}{chapter.1}}
\@writefile{lof}{\addvspace {10\p@ }}
\@writefile{lot}{\addvspace {10\p@ }}
\citation{martinFowlerDefiniceCI}
\citation{cibook}
\citation{martinFowlerDefiniceCI}
\@writefile{toc}{\contentsline {chapter}{\numberline {2}Continuous Integration}{4}{chapter.2}}
\@writefile{lof}{\addvspace {10\p@ }}
\@writefile{lot}{\addvspace {10\p@ }}
\newlabel{chapter:CI}{{2}{4}{Continuous Integration}{chapter.2}{}}
\@writefile{toc}{\contentsline {section}{\numberline {2.1}Purpose of Continuous Integration}{4}{section.2.1}}
\citation{singlepointoffailure}
\@writefile{toc}{\contentsline {subsection}{\numberline {2.1.1}Knowing the State of the Project}{5}{subsection.2.1.1}}
\@writefile{toc}{\contentsline {subsection}{\numberline {2.1.2}Reducing Number of Bugs}{5}{subsection.2.1.2}}
\@writefile{toc}{\contentsline {section}{\numberline {2.2}Advantages of Continuous Integration}{5}{section.2.2}}
\citation{Humble:2010:CDR:1869904}
\citation{cibook}
\citation{javaranch}
\citation{cibook}
\@writefile{toc}{\contentsline {section}{\numberline {2.3}Disadvantages of Continuous Integration}{6}{section.2.3}}
\@writefile{toc}{\contentsline {section}{\numberline {2.4}Continuous Integration Practices}{6}{section.2.4}}
\@writefile{lof}{\contentsline {figure}{\numberline {2.1}{\ignorespaces Scheme \cite  {cibook} illustrating continuous integration system and workflow.}}{6}{figure.2.1}}
\newlabel{fig:cischeme}{{2.1}{6}{Scheme \cite {cibook} illustrating continuous integration system and workflow}{figure.2.1}{}}
\@writefile{toc}{\contentsline {subsection}{\numberline {2.4.1}Agreement in the Team}{6}{subsection.2.4.1}}
\citation{cibook}
\citation{softwarebuilders}
\citation{McConnell:2004:CCS:1096143}
\citation{margaret}
\@writefile{toc}{\contentsline {subsection}{\numberline {2.4.2}Version Control}{7}{subsection.2.4.2}}
\@writefile{toc}{\contentsline {subsection}{\numberline {2.4.3}Code Inspection}{7}{subsection.2.4.3}}
\@writefile{toc}{\contentsline {subsection}{\numberline {2.4.4}Build Automation}{7}{subsection.2.4.4}}
\@writefile{toc}{\contentsline {subsection}{\numberline {2.4.5}Automated Tests and Self-testing}{7}{subsection.2.4.5}}
\citation{martinFowlerDefiniceCI}
\citation{martinmraz}
\citation{blogautodeployment}
\citation{finskathese}
\@writefile{toc}{\contentsline {subsection}{\numberline {2.4.6}Testing in Environment Simulating Production}{8}{subsection.2.4.6}}
\@writefile{toc}{\contentsline {subsection}{\numberline {2.4.7}Automated Deployment}{8}{subsection.2.4.7}}
\@writefile{toc}{\contentsline {section}{\numberline {2.5}Continuous Integration Tools}{8}{section.2.5}}
\citation{wiki}
\@writefile{toc}{\contentsline {subsection}{\numberline {2.5.1}Comparison of Continuous Integration Tools}{9}{subsection.2.5.1}}
\@writefile{lot}{\contentsline {table}{\numberline {A.1}{\ignorespaces Common tools used in continuous integration \cite  {wiki}.}}{10}{table.2.1}}
\newlabel{table:toolsoverview}{{A.1}{10}{Common tools used in continuous integration \cite {wiki}}{table.2.1}{}}
\citation{Smart:2011:JDG:2049885}
\citation{Smart:2011:JDG:2049885}
\citation{Smart:2011:JDG:2049885}
\@writefile{toc}{\contentsline {section}{\numberline {2.6}Tools Used in this Thesis}{11}{section.2.6}}
\@writefile{toc}{\contentsline {subsection}{\numberline {2.6.1}Jenkins}{11}{subsection.2.6.1}}
\@writefile{toc}{\contentsline {subsubsection}{Short History of Jenkins}{11}{section*.2}}
\@writefile{toc}{\contentsline {subsubsection}{Key Features of Jenkins Tool}{11}{section*.3}}
\citation{jenkinswiki}
\citation{foremanintro}
\citation{foremanintro}
\@writefile{lof}{\contentsline {figure}{\numberline {2.2}{\ignorespaces Jenkins GUI.}}{12}{figure.2.2}}
\newlabel{fig:jenkinsgui}{{2.2}{12}{Jenkins GUI}{figure.2.2}{}}
\@writefile{toc}{\contentsline {subsection}{\numberline {2.6.2}Foreman}{12}{subsection.2.6.2}}
\@writefile{lof}{\contentsline {figure}{\numberline {2.3}{\ignorespaces Foreman Architecture \cite  {foremanintro}.}}{13}{figure.2.3}}
\newlabel{fig:foremanarch}{{2.3}{13}{Foreman Architecture \cite {foremanintro}}{figure.2.3}{}}
\citation{softwarebuilders}
\citation{gnumanual}
\citation{Mecklenburg:2004:MPG:1199658}
\citation{gnumanual}
\@writefile{toc}{\contentsline {chapter}{\numberline {3}Build Automation}{14}{chapter.3}}
\@writefile{lof}{\addvspace {10\p@ }}
\@writefile{lot}{\addvspace {10\p@ }}
\newlabel{chapter:buildautomation}{{3}{14}{Build Automation}{chapter.3}{}}
\@writefile{toc}{\contentsline {section}{\numberline {3.1}Build Automation Tools}{14}{section.3.1}}
\@writefile{toc}{\contentsline {subsection}{\numberline {3.1.1}Make Utility}{14}{subsection.3.1.1}}
\@writefile{toc}{\contentsline {subsubsection}{Summary \discretionary {-}{}{}-\ features}{14}{section*.4}}
\citation{softwarebuilders}
\citation{antwebsite}
\citation{finskathese}
\citation{mavencompleteref}
\citation{gradlebook}
\@writefile{toc}{\contentsline {subsection}{\numberline {3.1.2}Ant}{15}{subsection.3.1.2}}
\@writefile{toc}{\contentsline {subsubsection}{Summary \discretionary {-}{}{}-\ features}{15}{section*.5}}
\@writefile{toc}{\contentsline {subsection}{\numberline {3.1.3}Maven}{15}{subsection.3.1.3}}
\@writefile{toc}{\contentsline {subsubsection}{Summary \discretionary {-}{}{}-\ features}{15}{section*.6}}
\citation{firefox}
\citation{firefoxwiki}
\citation{firefoxwiki}
\citation{firefoxblog}
\@writefile{toc}{\contentsline {subsection}{\numberline {3.1.4}Gradle}{16}{subsection.3.1.4}}
\@writefile{toc}{\contentsline {subsubsection}{Summary \discretionary {-}{}{}-\ features}{16}{section*.7}}
\@writefile{toc}{\contentsline {subsection}{\numberline {3.1.5}Summary}{16}{subsection.3.1.5}}
\@writefile{toc}{\contentsline {section}{\numberline {3.2}Analysis of Real Examples of the Build Automation using Continuous Integration}{16}{section.3.2}}
\citation{dockerbook}
\citation{dockerbook}
\citation{dockerwiki}
\citation{Humble:2010:CDR:1869904}
\@writefile{toc}{\contentsline {subsection}{\numberline {3.2.1}Mozilla and Build Automation}{17}{subsection.3.2.1}}
\@writefile{toc}{\contentsline {subsection}{\numberline {3.2.2}Docker and Build Automation}{17}{subsection.3.2.2}}
\@writefile{toc}{\contentsline {subsection}{\numberline {3.2.3}Build Automation and Continuous Integration For Developers}{18}{subsection.3.2.3}}
\newlabel{subsection:bacidevs}{{3.2.3}{18}{Build Automation and Continuous Integration For Developers}{subsection.3.2.3}{}}
\@writefile{toc}{\contentsline {subsubsection}{Use Case 1: Python Script}{18}{section*.8}}
\@writefile{toc}{\contentsline {subsubsection}{Use Case 2: NodeJS Server Development}{18}{section*.9}}
\@writefile{toc}{\contentsline {subsubsection}{Use Case 3: Apache Configuration}{19}{section*.10}}
\@writefile{toc}{\contentsline {subsubsection}{Use Case 4: HTML, JavaScript and CSS Development}{19}{section*.11}}
\@writefile{toc}{\contentsline {subsubsection}{Use Case 5: PHP Development}{19}{section*.12}}
\@writefile{toc}{\contentsline {section}{\numberline {3.3}Summary}{20}{section.3.3}}
\citation{Pilato:2004:VCS:975530}
\@writefile{toc}{\contentsline {chapter}{\numberline {4}System Using Build Automation and Continuous Integration Methodics}{21}{chapter.4}}
\@writefile{lof}{\addvspace {10\p@ }}
\@writefile{lot}{\addvspace {10\p@ }}
\newlabel{chapter:systemusingbuildaut}{{4}{21}{System Using Build Automation and Continuous Integration Methodics}{chapter.4}{}}
\@writefile{toc}{\contentsline {section}{\numberline {4.1}Description of the System}{21}{section.4.1}}
\newlabel{sec:description}{{4.1}{21}{Description of the System}{section.4.1}{}}
\@writefile{toc}{\contentsline {section}{\numberline {4.2}Components of the System}{21}{section.4.2}}
\newlabel{sec:components}{{4.2}{21}{Components of the System}{section.4.2}{}}
\@writefile{lof}{\contentsline {figure}{\numberline {4.1}{\ignorespaces System's component diagram.}}{22}{figure.4.1}}
\newlabel{fig:components}{{4.1}{22}{System's component diagram}{figure.4.1}{}}
\@writefile{toc}{\contentsline {section}{\numberline {4.3}Description of Behaviour}{22}{section.4.3}}
\newlabel{sec:behavior}{{4.3}{22}{Description of Behaviour}{section.4.3}{}}
\@writefile{lof}{\contentsline {figure}{\numberline {4.2}{\ignorespaces System's activity diagram}}{22}{figure.4.2}}
\newlabel{fig:aktivity}{{4.2}{22}{System's activity diagram}{figure.4.2}{}}
\@writefile{toc}{\contentsline {section}{\numberline {4.4}Description of the Implementation}{23}{section.4.4}}
\newlabel{sec:systemconclusion}{{4.4}{23}{Description of the Implementation}{section.4.4}{}}
\@writefile{lot}{\contentsline {table}{\numberline {A.2}{\ignorespaces Information about virtual machines of the implemented system}}{23}{table.4.2}}
\newlabel{table:vms}{{A.2}{23}{Information about virtual machines of the implemented system}{table.4.2}{}}
\@writefile{toc}{\contentsline {section}{\numberline {4.5}Evaluation of the System}{23}{section.4.5}}
\newlabel{sec:results}{{4.5}{23}{Evaluation of the System}{section.4.5}{}}
\bibstyle{czplain}
\@writefile{toc}{\contentsline {chapter}{\numberline {5}Conclusion}{24}{chapter.5}}
\@writefile{lof}{\addvspace {10\p@ }}
\@writefile{lot}{\addvspace {10\p@ }}
\newlabel{chapter:conlusion}{{5}{24}{Conclusion}{chapter.5}{}}
\@writefile{toc}{\contentsline {section}{\numberline {5.1}Future development}{24}{section.5.1}}
\bibdata{literatura}
\bibcite{antwebsite}{1}
\bibcite{dockerwiki}{2}
\bibcite{foremanintro}{3}
\bibcite{gnumanual}{4}
\bibcite{mavencompleteref}{5}
\bibcite{firefoxwiki}{6}
\bibcite{gradlebook}{7}
\bibcite{singlepointoffailure}{8}
\bibcite{cibook}{9}
\bibcite{martinFowlerDefiniceCI}{10}
\bibcite{firefoxblog}{11}
\bibcite{Humble:2010:CDR:1869904}{12}
\bibcite{jenkinswiki}{13}
\bibcite{McConnell:2004:CCS:1096143}{14}
\@writefile{toc}{\contentsline {chapter}{Bibliography}{26}{chapter*.13}}
\bibcite{Mecklenburg:2004:MPG:1199658}{15}
\bibcite{martinmraz}{16}
\bibcite{finskathese}{17}
\bibcite{Pilato:2004:VCS:975530}{18}
\bibcite{margaret}{19}
\bibcite{javaranch}{20}
\bibcite{Smart:2011:JDG:2049885}{21}
\bibcite{blogautodeployment}{22}
\bibcite{softwarebuilders}{23}
\bibcite{firefox}{24}
\bibcite{dockerbook}{25}
\bibcite{wiki}{26}
\@writefile{toc}{\contentsline {chapter}{Appendices}{28}{section*.14}}
\@writefile{toc}{\contentsline {section}{List of Appendices}{29}{section*.15}}
\ttl@writefile{ptc}{\ttl@starttoc{chapters@1}}
\@writefile{toc}{\contentsline {chapter}{\numberline {A}Content of DVD}{30}{appendix.A}}
\@writefile{lof}{\addvspace {10\p@ }}
\@writefile{lot}{\addvspace {10\p@ }}
\@writefile{toc}{\contentsline {chapter}{\numberline {B}Manual}{31}{appendix.B}}
\@writefile{lof}{\addvspace {10\p@ }}
\@writefile{lot}{\addvspace {10\p@ }}
\@writefile{toc}{\contentsline {section}{\numberline {B.1}Installing VirtualBox}{31}{section.B.1}}
\@writefile{toc}{\contentsline {section}{\numberline {B.2}Configure VirtualBox}{31}{section.B.2}}
\@writefile{toc}{\contentsline {section}{\numberline {B.3}Reassembling VirtualBox file}{31}{section.B.3}}
\@writefile{toc}{\contentsline {section}{\numberline {B.4}Importing virtual machines from VirtualBox import file}{32}{section.B.4}}
\@writefile{toc}{\contentsline {section}{\numberline {B.5}Summary}{32}{section.B.5}}
\@writefile{toc}{\contentsline {section}{\numberline {B.6}User manual}{32}{section.B.6}}
\ttl@finishall
