%!PS-Adobe-3.0 EPSF-3.0
%%Creator: cairo 1.14.0 (http://cairographics.org)
%%CreationDate: Tue May 10 16:40:40 2016
%%Pages: 1
%%DocumentData: Clean7Bit
%%LanguageLevel: 2
%%BoundingBox: 0 0 562 307
%%EndComments
%%BeginProlog
save
50 dict begin
/q { gsave } bind def
/Q { grestore } bind def
/cm { 6 array astore concat } bind def
/w { setlinewidth } bind def
/J { setlinecap } bind def
/j { setlinejoin } bind def
/M { setmiterlimit } bind def
/d { setdash } bind def
/m { moveto } bind def
/l { lineto } bind def
/c { curveto } bind def
/h { closepath } bind def
/re { exch dup neg 3 1 roll 5 3 roll moveto 0 rlineto
      0 exch rlineto 0 rlineto closepath } bind def
/S { stroke } bind def
/f { fill } bind def
/f* { eofill } bind def
/n { newpath } bind def
/W { clip } bind def
/W* { eoclip } bind def
/BT { } bind def
/ET { } bind def
/pdfmark where { pop globaldict /?pdfmark /exec load put }
    { globaldict begin /?pdfmark /pop load def /pdfmark
    /cleartomark load def end } ifelse
/BDC { mark 3 1 roll /BDC pdfmark } bind def
/EMC { mark /EMC pdfmark } bind def
/cairo_store_point { /cairo_point_y exch def /cairo_point_x exch def } def
/Tj { show currentpoint cairo_store_point } bind def
/TJ {
  {
    dup
    type /stringtype eq
    { show } { -0.001 mul 0 cairo_font_matrix dtransform rmoveto } ifelse
  } forall
  currentpoint cairo_store_point
} bind def
/cairo_selectfont { cairo_font_matrix aload pop pop pop 0 0 6 array astore
    cairo_font exch selectfont cairo_point_x cairo_point_y moveto } bind def
/Tf { pop /cairo_font exch def /cairo_font_matrix where
      { pop cairo_selectfont } if } bind def
/Td { matrix translate cairo_font_matrix matrix concatmatrix dup
      /cairo_font_matrix exch def dup 4 get exch 5 get cairo_store_point
      /cairo_font where { pop cairo_selectfont } if } bind def
/Tm { 2 copy 8 2 roll 6 array astore /cairo_font_matrix exch def
      cairo_store_point /cairo_font where { pop cairo_selectfont } if } bind def
/g { setgray } bind def
/rg { setrgbcolor } bind def
/d1 { setcachedevice } bind def
%%EndProlog
%%BeginSetup
%%EndSetup
%%Page: 1 1
%%BeginPageSetup
%%PageBoundingBox: 0 0 562 307
%%EndPageSetup
q 0 0 562 307 rectclip q
q
0 307 562 -307 re W n
  q
1 g
0 0 562 307 rectfill
  Q
Q
q
0 307 562 -307 re W n
  q
q
0 307 562 -307 re W n
  q
1 g
0.5 306.5 180 -90 re f
0 g
1 w
0 J
0 j
[] 0.0 d
10 M 0.5 306.5 180 -90 re S
  Q
Q
  Q
Q
q
0 307 562 -307 re W n
  q
q
0 307 562 -307 re W n
  q
Q q
1 306 179 -89 re W n
q
1 306 179 -89 re W n
  q
0 g
29.125 276.609 m 31.598 269.277 l 34.043 276.609 l 35.348 276.609 l 32.207
 268 l 30.969 268 l 27.836 276.609 l h
40.215 274.102 m 40.629 273.895 40.949 273.625 41.168 273.293 c 41.379 
272.973 41.52 272.605 41.59 272.184 c 41.652 271.895 41.684 271.434 41.684
 270.801 c 37.082 270.801 l 37.102 270.164 37.254 269.652 37.535 269.27 
c 37.816 268.883 38.25 268.691 38.844 268.691 c 39.391 268.691 39.832 268.875
 40.16 269.234 c 40.348 269.449 40.48 269.691 40.559 269.969 c 41.594 269.969
 l 41.57 269.738 41.477 269.48 41.324 269.199 c 41.168 268.914 40.996 268.684
 40.805 268.504 c 40.484 268.191 40.09 267.98 39.613 267.871 c 39.359 267.809
 39.074 267.777 38.754 267.777 c 37.973 267.777 37.312 268.062 36.766 268.629
 c 36.223 269.199 35.953 269.996 35.953 271.016 c 35.953 272.027 36.227 
272.844 36.773 273.473 c 37.32 274.102 38.035 274.418 38.918 274.418 c 39.363
 274.418 39.797 274.312 40.215 274.102 c h
40.598 271.641 m 40.555 272.094 40.457 272.461 40.301 272.734 c 40.012 
273.242 39.531 273.496 38.855 273.496 c 38.371 273.496 37.965 273.32 37.637
 272.973 c 37.309 272.621 37.133 272.176 37.113 271.641 c h
43.004 274.277 m 44.008 274.277 l 44.008 273.191 l 44.09 273.402 44.293
 273.66 44.609 273.961 c 44.934 274.266 45.301 274.418 45.719 274.418 c 
45.738 274.418 45.77 274.414 45.82 274.41 c 45.863 274.406 45.945 274.398
 46.059 274.387 c 46.059 273.273 l 45.996 273.285 45.938 273.293 45.887 
273.297 c 45.832 273.301 45.777 273.301 45.715 273.301 c 45.184 273.301 
44.773 273.133 44.488 272.789 c 44.203 272.449 44.062 272.055 44.062 271.609
 c 44.062 268 l 43.008 268 l 43.008 274.277 l h
47.59 269.969 m 47.621 269.617 47.707 269.348 47.852 269.16 c 48.117 268.82
 48.578 268.652 49.234 268.652 c 49.625 268.652 49.969 268.734 50.266 268.906
 c 50.562 269.074 50.711 269.34 50.711 269.691 c 50.711 269.965 50.594 270.168
 50.355 270.309 c 50.203 270.395 49.902 270.496 49.453 270.609 c 48.613 
270.816 l 48.078 270.953 47.684 271.098 47.43 271.266 c 46.977 271.547 46.75
 271.941 46.75 272.449 c 46.75 273.043 46.965 273.52 47.391 273.891 c 47.82
 274.254 48.395 274.438 49.117 274.438 c 50.062 274.438 50.746 274.16 51.16
 273.609 c 51.422 273.254 51.551 272.875 51.543 272.469 c 50.547 272.469
 l 50.527 272.707 50.441 272.926 50.297 273.121 c 50.051 273.398 49.633 
273.535 49.035 273.535 c 48.637 273.535 48.336 273.461 48.129 273.309 c 
47.926 273.156 47.824 272.953 47.824 272.703 c 47.824 272.434 47.957 272.215
 48.227 272.047 c 48.383 271.949 48.613 271.863 48.918 271.793 c 49.613 
271.621 l 50.375 271.438 50.879 271.262 51.141 271.09 c 51.547 270.816 51.754
 270.395 51.754 269.816 c 51.754 269.258 51.543 268.777 51.117 268.371 c
 50.695 267.965 50.047 267.762 49.184 267.762 c 48.25 267.762 47.586 267.973
 47.199 268.395 c 46.809 268.82 46.602 269.344 46.574 269.969 c h
52.961 274.246 m 54.031 274.246 l 54.031 268 l 52.961 268 l h
52.961 276.609 m 54.031 276.609 l 54.031 275.41 l 52.961 275.41 l h
59.547 269.473 m 59.805 270.004 59.938 270.594 59.938 271.238 c 59.938 
271.828 59.844 272.301 59.656 272.672 c 59.359 273.25 58.844 273.535 58.121
 273.535 c 57.473 273.535 57.004 273.293 56.715 272.797 c 56.422 272.309
 56.273 271.715 56.273 271.016 c 56.273 270.348 56.422 269.793 56.715 269.348
 c 57.004 268.902 57.469 268.68 58.109 268.68 c 58.809 268.68 59.285 268.945
 59.547 269.473 c h
60.199 273.648 m 60.758 273.109 61.035 272.316 61.035 271.27 c 61.035 270.258
 60.793 269.422 60.297 268.762 c 59.809 268.102 59.043 267.77 58.008 267.77
 c 57.145 267.77 56.457 268.062 55.953 268.648 c 55.441 269.23 55.188 270.016
 55.188 271 c 55.188 272.055 55.457 272.895 55.992 273.52 c 56.527 274.145
 57.246 274.457 58.148 274.457 c 58.957 274.457 59.641 274.188 60.199 273.648
 c h
62.289 274.277 m 63.293 274.277 l 63.293 273.387 l 63.59 273.75 63.902 
274.016 64.234 274.176 c 64.566 274.336 64.938 274.418 65.344 274.418 c 
66.234 274.418 66.832 274.105 67.145 273.484 c 67.316 273.145 67.406 272.656
 67.406 272.027 c 67.406 268 l 66.332 268 l 66.332 271.953 l 66.332 272.34
 66.277 272.645 66.16 272.879 c 65.973 273.27 65.637 273.469 65.141 273.469
 c 64.891 273.469 64.688 273.441 64.527 273.391 c 64.238 273.305 63.984 
273.133 63.766 272.875 c 63.59 272.668 63.477 272.453 63.422 272.234 c 63.371
 272.012 63.344 271.699 63.344 271.289 c 63.344 268 l 62.289 268 l h
62.289 274.277 m f
78.594 275.98 m 79.195 275.406 79.531 274.754 79.594 274.023 c 78.457 274.023
 l 78.328 274.578 78.074 275.016 77.688 275.344 c 77.305 275.668 76.766 
275.828 76.066 275.828 c 75.219 275.828 74.535 275.531 74.016 274.934 c 
73.492 274.34 73.234 273.426 73.234 272.195 c 73.234 271.188 73.469 270.371
 73.938 269.742 c 74.41 269.117 75.109 268.801 76.047 268.801 c 76.906 268.801
 77.559 269.133 78.008 269.793 c 78.246 270.141 78.422 270.598 78.543 271.164
 c 79.676 271.164 l 79.578 270.258 79.238 269.5 78.672 268.887 c 77.984 
268.145 77.062 267.777 75.906 267.777 c 74.906 267.777 74.062 268.078 73.387
 268.688 c 72.488 269.484 72.043 270.723 72.043 272.395 c 72.043 273.664
 72.379 274.703 73.051 275.516 c 73.777 276.402 74.781 276.844 76.059 276.844
 c 77.145 276.844 77.992 276.555 78.594 275.98 c h
84.875 269.473 m 85.133 270.004 85.266 270.594 85.266 271.238 c 85.266 
271.828 85.172 272.301 84.984 272.672 c 84.688 273.25 84.172 273.535 83.449
 273.535 c 82.801 273.535 82.332 273.293 82.043 272.797 c 81.75 272.309 
81.602 271.715 81.602 271.016 c 81.602 270.348 81.75 269.793 82.043 269.348
 c 82.332 268.902 82.797 268.68 83.438 268.68 c 84.137 268.68 84.613 268.945
 84.875 269.473 c h
85.527 273.648 m 86.086 273.109 86.363 272.316 86.363 271.27 c 86.363 270.258
 86.121 269.422 85.625 268.762 c 85.137 268.102 84.371 267.77 83.336 267.77
 c 82.473 267.77 81.785 268.062 81.281 268.648 c 80.77 269.23 80.516 270.016
 80.516 271 c 80.516 272.055 80.785 272.895 81.32 273.52 c 81.855 274.145
 82.574 274.457 83.477 274.457 c 84.285 274.457 84.969 274.188 85.527 273.648
 c h
87.617 274.277 m 88.621 274.277 l 88.621 273.387 l 88.918 273.75 89.23 
274.016 89.562 274.176 c 89.895 274.336 90.266 274.418 90.672 274.418 c 
91.562 274.418 92.16 274.105 92.473 273.484 c 92.645 273.145 92.734 272.656
 92.734 272.027 c 92.734 268 l 91.66 268 l 91.66 271.953 l 91.66 272.34 
91.605 272.645 91.488 272.879 c 91.301 273.27 90.965 273.469 90.469 273.469
 c 90.219 273.469 90.016 273.441 89.855 273.391 c 89.566 273.305 89.312 
273.133 89.094 272.875 c 88.918 272.668 88.805 272.453 88.75 272.234 c 88.699
 272.012 88.672 271.699 88.672 271.289 c 88.672 268 l 87.617 268 l h
94.5 276.027 m 95.566 276.027 l 95.566 274.277 l 96.566 274.277 l 96.566
 273.414 l 95.566 273.414 l 95.566 269.316 l 95.566 269.098 95.641 268.953
 95.789 268.879 c 95.871 268.836 96.008 268.816 96.199 268.816 c 96.25 268.816
 96.305 268.816 96.363 268.816 c 96.422 268.82 96.488 268.824 96.566 268.832
 c 96.566 268 l 96.449 267.965 96.32 267.938 96.191 267.922 c 96.059 267.906
 95.918 267.898 95.766 267.898 c 95.273 267.898 94.938 268.027 94.766 268.277
 c 94.59 268.531 94.5 268.859 94.5 269.262 c 94.5 273.414 l 93.652 273.414
 l 93.652 274.277 l 94.5 274.277 l h
97.645 274.277 m 98.648 274.277 l 98.648 273.191 l 98.73 273.402 98.934
 273.66 99.25 273.961 c 99.574 274.266 99.941 274.418 100.359 274.418 c 
100.379 274.418 100.41 274.414 100.457 274.41 c 100.508 274.406 100.586 
274.398 100.699 274.387 c 100.699 273.273 l 100.637 273.285 100.578 273.293
 100.527 273.297 c 100.473 273.301 100.414 273.301 100.352 273.301 c 99.82
 273.301 99.414 273.133 99.129 272.789 c 98.844 272.449 98.699 272.055 98.699
 271.609 c 98.699 268 l 97.645 268 l h
105.531 269.473 m 105.789 270.004 105.918 270.594 105.918 271.238 c 105.918
 271.828 105.828 272.301 105.637 272.672 c 105.344 273.25 104.832 273.535
 104.105 273.535 c 103.457 273.535 102.988 273.293 102.699 272.797 c 102.406
 272.309 102.258 271.715 102.258 271.016 c 102.258 270.348 102.406 269.793
 102.699 269.348 c 102.988 268.902 103.457 268.68 104.094 268.68 c 104.793
 268.68 105.27 268.945 105.531 269.473 c h
106.184 273.648 m 106.742 273.109 107.02 272.316 107.02 271.27 c 107.02
 270.258 106.773 269.422 106.281 268.762 c 105.793 268.102 105.027 267.77
 103.992 267.77 c 103.129 267.77 102.445 268.062 101.938 268.648 c 101.426
 269.23 101.176 270.016 101.176 271 c 101.176 272.055 101.441 272.895 101.977
 273.52 c 102.512 274.145 103.23 274.457 104.133 274.457 c 104.941 274.457
 105.625 274.188 106.184 273.648 c h
108.301 276.609 m 109.355 276.609 l 109.355 268 l 108.301 268 l h
108.301 276.609 m f
115.16 270.777 m 115.188 270.289 115.301 269.891 115.508 269.59 c 115.895
 269.016 116.574 268.734 117.551 268.734 c 117.988 268.734 118.387 268.797
 118.746 268.922 c 119.441 269.16 119.789 269.594 119.789 270.219 c 119.789
 270.688 119.645 271.023 119.352 271.223 c 119.051 271.418 118.586 271.59
 117.957 271.734 c 116.789 271.996 l 116.027 272.168 115.488 272.359 115.172
 272.562 c 114.625 272.922 114.352 273.461 114.352 274.176 c 114.352 274.949
 114.617 275.582 115.156 276.078 c 115.688 276.578 116.449 276.824 117.426
 276.824 c 118.332 276.824 119.098 276.605 119.727 276.172 c 120.359 275.734
 120.676 275.039 120.676 274.082 c 119.578 274.082 l 119.52 274.543 119.395
 274.895 119.203 275.141 c 118.848 275.594 118.242 275.816 117.395 275.816
 c 116.707 275.816 116.211 275.672 115.91 275.383 c 115.609 275.094 115.457
 274.758 115.457 274.375 c 115.457 273.953 115.637 273.645 115.988 273.449
 c 116.219 273.324 116.738 273.168 117.551 272.98 c 118.758 272.703 l 119.34
 272.574 119.789 272.391 120.105 272.16 c 120.652 271.758 120.926 271.172
 120.926 270.406 c 120.926 269.453 120.578 268.773 119.887 268.363 c 119.191
 267.953 118.387 267.75 117.469 267.75 c 116.398 267.75 115.562 268.02 114.957
 268.566 c 114.352 269.109 114.051 269.848 114.062 270.777 c h
126.176 274.277 m 127.344 274.277 l 127.195 273.875 126.863 272.953 126.355
 271.52 c 125.969 270.441 125.648 269.562 125.395 268.887 c 124.781 267.281
 124.355 266.309 124.105 265.953 c 123.855 265.605 123.426 265.426 122.812
 265.426 c 122.668 265.426 122.551 265.434 122.473 265.445 c 122.391 265.457
 122.293 265.477 122.176 265.508 c 122.176 266.469 l 122.359 266.418 122.492
 266.387 122.574 266.375 c 122.656 266.363 122.73 266.359 122.793 266.359
 c 122.988 266.359 123.129 266.391 123.223 266.457 c 123.312 266.52 123.391
 266.598 123.453 266.691 c 123.473 266.723 123.543 266.883 123.664 267.172
 c 123.785 267.461 123.875 267.676 123.926 267.816 c 121.605 274.273 l 122.801
 274.273 l 124.484 269.164 l 126.176 274.273 l h
128.883 269.969 m 128.914 269.617 129.004 269.348 129.148 269.16 c 129.414
 268.82 129.875 268.652 130.531 268.652 c 130.922 268.652 131.266 268.734
 131.562 268.906 c 131.859 269.074 132.008 269.34 132.008 269.691 c 132.008
 269.965 131.887 270.168 131.648 270.309 c 131.5 270.395 131.195 270.496
 130.75 270.609 c 129.91 270.816 l 129.375 270.953 128.98 271.098 128.727
 271.266 c 128.273 271.547 128.047 271.941 128.047 272.449 c 128.047 273.043
 128.262 273.52 128.688 273.891 c 129.117 274.254 129.691 274.438 130.414
 274.438 c 131.359 274.438 132.039 274.16 132.457 273.609 c 132.719 273.254
 132.848 272.875 132.84 272.469 c 131.844 272.469 l 131.824 272.707 131.738
 272.926 131.594 273.121 c 131.352 273.398 130.93 273.535 130.332 273.535
 c 129.934 273.535 129.633 273.461 129.426 273.309 c 129.223 273.156 129.117
 272.953 129.117 272.703 c 129.117 272.434 129.254 272.215 129.523 272.047
 c 129.68 271.949 129.91 271.863 130.215 271.793 c 130.914 271.621 l 131.668
 271.438 132.176 271.262 132.438 271.09 c 132.844 270.816 133.051 270.395
 133.051 269.816 c 133.051 269.258 132.84 268.777 132.414 268.371 c 131.992
 267.965 131.344 267.762 130.477 267.762 c 129.543 267.762 128.883 267.973
 128.496 268.395 c 128.105 268.82 127.898 269.344 127.871 269.969 c h
134.469 276.027 m 135.535 276.027 l 135.535 274.277 l 136.539 274.277 l
 136.539 273.414 l 135.535 273.414 l 135.535 269.316 l 135.535 269.098 135.609
 268.953 135.758 268.879 c 135.84 268.836 135.977 268.816 136.168 268.816
 c 136.219 268.816 136.273 268.816 136.332 268.816 c 136.391 268.82 136.457
 268.824 136.539 268.832 c 136.539 268 l 136.414 267.965 136.289 267.938
 136.16 267.922 c 136.027 267.906 135.887 267.898 135.734 267.898 c 135.242
 267.898 134.906 268.027 134.73 268.277 c 134.555 268.531 134.469 268.855
 134.469 269.258 c 134.469 273.414 l 133.617 273.414 l 133.617 274.273 l
 134.469 274.273 l h
141.492 274.102 m 141.914 273.895 142.23 273.625 142.449 273.293 c 142.66
 272.973 142.801 272.605 142.871 272.184 c 142.934 271.895 142.965 271.434
 142.965 270.801 c 138.363 270.801 l 138.383 270.164 138.535 269.652 138.816
 269.27 c 139.098 268.883 139.531 268.691 140.121 268.691 c 140.672 268.691
 141.113 268.875 141.441 269.234 c 141.629 269.449 141.762 269.691 141.84
 269.969 c 142.875 269.969 l 142.848 269.738 142.758 269.48 142.605 269.199
 c 142.449 268.914 142.277 268.684 142.086 268.504 c 141.766 268.191 141.367
 267.98 140.895 267.871 c 140.641 267.809 140.355 267.777 140.035 267.777
 c 139.254 267.777 138.59 268.062 138.047 268.629 c 137.504 269.199 137.234
 269.996 137.234 271.016 c 137.234 272.027 137.508 272.844 138.055 273.473
 c 138.602 274.102 139.316 274.418 140.199 274.418 c 140.645 274.418 141.074
 274.312 141.492 274.102 c h
141.883 271.641 m 141.836 272.094 141.738 272.461 141.582 272.734 c 141.293
 273.242 140.812 273.496 140.133 273.496 c 139.648 273.496 139.242 273.32
 138.914 272.973 c 138.586 272.621 138.414 272.176 138.395 271.641 c h
144.258 274.277 m 145.301 274.277 l 145.301 273.387 l 145.551 273.691 145.777
 273.918 145.98 274.059 c 146.328 274.297 146.723 274.418 147.164 274.418
 c 147.664 274.418 148.066 274.293 148.371 274.047 c 148.543 273.906 148.699
 273.699 148.84 273.426 c 149.074 273.762 149.352 274.012 149.664 274.172
 c 149.98 274.336 150.336 274.418 150.73 274.418 c 151.574 274.418 152.148
 274.109 152.457 273.5 c 152.617 273.172 152.699 272.734 152.699 272.176
 c 152.699 268 l 151.605 268 l 151.605 272.359 l 151.605 272.777 151.5 273.062
 151.293 273.219 c 151.082 273.375 150.828 273.453 150.527 273.453 c 150.113
 273.453 149.758 273.316 149.457 273.039 c 149.16 272.762 149.008 272.297
 149.008 271.652 c 149.008 268 l 147.938 268 l 147.938 272.094 l 147.938
 272.52 147.887 272.832 147.785 273.027 c 147.625 273.32 147.324 273.469
 146.887 273.469 c 146.488 273.469 146.129 273.312 145.801 273.004 c 145.477
 272.695 145.312 272.137 145.312 271.328 c 145.312 268 l 144.258 268 l h
144.258 274.277 m f
  Q
Q
  Q
Q
  Q
Q
q
0 307 562 -307 re W n
  q
q
0 307 562 -307 re W n
  q
1 g
157.5 299.5 m 173.5 299.5 l 173.5 279.5 l 157.5 279.5 l 157.5 283.5 l 153.5
 283.5 l 153.5 287.5 l 157.5 287.5 l 157.5 291.5 l 153.5 291.5 l 153.5 295.5
 l 157.5 295.5 l h
157.5 299.5 m f
0 g
1 w
0 J
0 j
[] 0.0 d
10 M 157.5 299.5 m 173.5 299.5 l 173.5 279.5 l 157.5 279.5 l 157.5 283.5 l 153.5
 283.5 l 153.5 287.5 l 157.5 287.5 l 157.5 291.5 l 153.5 291.5 l 153.5 295.5
 l 157.5 295.5 l h
157.5 299.5 m S
157.5 295.5 m 161.5 295.5 l 161.5 291.5 l 157.5 291.5 l 157.5 287.5 m 161.5
 287.5 l 161.5 283.5 l 157.5 283.5 l S
1 g
0.5 86.5 180 -80 re f
0 g
0.5 86.5 180 -80 re S
  Q
Q
  Q
Q
q
0 307 562 -307 re W n
  q
q
0 307 562 -307 re W n
  q
Q q
1 86 179 -79 re W n
q
1 86 179 -79 re W n
  q
0 g
72.176 69.375 m 72.746 68.617 73.031 67.641 73.031 66.453 c 73.031 65.168
 72.703 64.102 72.051 63.25 c 71.285 62.25 70.195 61.75 68.777 61.75 c 67.453
 61.75 66.41 62.188 65.656 63.062 c 64.98 63.906 64.641 64.969 64.641 66.262
 c 64.641 67.426 64.93 68.418 65.508 69.25 c 66.25 70.312 67.348 70.844 
68.801 70.844 c 70.32 70.844 71.445 70.355 72.176 69.375 c h
71.148 63.895 m 71.605 64.633 71.836 65.48 71.836 66.438 c 71.836 67.449
 71.57 68.262 71.043 68.879 c 70.512 69.496 69.789 69.805 68.871 69.805 
c 67.98 69.805 67.254 69.5 66.691 68.887 c 66.129 68.277 65.848 67.375 65.848
 66.184 c 65.848 65.23 66.09 64.426 66.57 63.773 c 67.055 63.117 67.836 
62.793 68.918 62.793 c 69.945 62.793 70.688 63.16 71.148 63.895 c h
78.148 63.328 m 78.477 63.738 78.641 64.355 78.641 65.176 c 78.641 65.676
 78.566 66.105 78.422 66.465 c 78.148 67.156 77.648 67.5 76.922 67.5 c 76.191
 67.5 75.691 67.137 75.422 66.406 c 75.277 66.016 75.203 65.52 75.203 64.918
 c 75.203 64.434 75.277 64.023 75.422 63.68 c 75.695 63.031 76.195 62.711
 76.922 62.711 c 77.414 62.711 77.824 62.914 78.148 63.328 c h
74.191 68.246 m 75.219 68.246 l 75.219 67.414 l 75.426 67.699 75.656 67.918
 75.906 68.074 c 76.266 68.312 76.684 68.43 77.16 68.43 c 77.875 68.43 78.477
 68.156 78.973 67.609 c 79.469 67.066 79.719 66.289 79.719 65.273 c 79.719
 63.906 79.359 62.93 78.645 62.344 c 78.191 61.977 77.664 61.789 77.062 
61.789 c 76.59 61.789 76.191 61.895 75.875 62.102 c 75.688 62.219 75.477
 62.418 75.246 62.703 c 75.246 59.5 l 74.191 59.5 l h
84.855 68.102 m 85.27 67.895 85.59 67.625 85.809 67.293 c 86.02 66.977 
86.16 66.605 86.23 66.184 c 86.293 65.895 86.324 65.434 86.324 64.801 c 
81.723 64.801 l 81.742 64.164 81.895 63.652 82.176 63.27 c 82.457 62.883
 82.891 62.691 83.484 62.691 c 84.031 62.691 84.473 62.875 84.801 63.238
 c 84.988 63.449 85.121 63.691 85.199 63.969 c 86.234 63.969 l 86.211 63.738
 86.117 63.48 85.965 63.199 c 85.809 62.914 85.637 62.684 85.445 62.504 
c 85.125 62.191 84.73 61.98 84.254 61.871 c 84 61.809 83.715 61.777 83.395
 61.777 c 82.613 61.777 81.953 62.062 81.406 62.629 c 80.863 63.199 80.594
 63.996 80.594 65.02 c 80.594 66.027 80.867 66.844 81.414 67.473 c 81.961
 68.102 82.676 68.418 83.559 68.418 c 84.004 68.418 84.438 68.312 84.855
 68.102 c h
85.238 65.637 m 85.195 66.094 85.098 66.461 84.941 66.734 c 84.652 67.242
 84.172 67.496 83.496 67.496 c 83.012 67.496 82.605 67.32 82.277 66.973 
c 81.949 66.621 81.773 66.176 81.754 65.637 c h
87.645 68.273 m 88.648 68.273 l 88.648 67.191 l 88.73 67.402 88.934 67.66
 89.25 67.961 c 89.574 68.266 89.941 68.418 90.359 68.418 c 90.379 68.418
 90.41 68.414 90.461 68.41 c 90.504 68.406 90.586 68.398 90.699 68.387 c
 90.699 67.273 l 90.637 67.285 90.578 67.293 90.527 67.297 c 90.473 67.301
 90.418 67.305 90.355 67.305 c 89.824 67.305 89.414 67.133 89.129 66.789
 c 88.844 66.449 88.703 66.055 88.703 65.609 c 88.703 62 l 87.648 62 l 87.648
 68.273 l h
92.746 62.949 m 92.969 62.773 93.23 62.688 93.535 62.688 c 93.906 62.688
 94.266 62.77 94.613 62.945 c 95.199 63.23 95.492 63.695 95.492 64.344 c
 95.492 65.195 l 95.363 65.113 95.199 65.043 94.996 64.988 c 94.793 64.934
 94.594 64.895 94.395 64.871 c 93.758 64.789 l 93.375 64.738 93.09 64.66
 92.895 64.551 c 92.574 64.367 92.41 64.074 92.41 63.672 c 92.41 63.367 
92.52 63.125 92.746 62.949 c h
94.965 65.805 m 95.207 65.832 95.371 65.938 95.453 66.105 c 95.496 66.199
 95.52 66.336 95.52 66.512 c 95.52 66.871 95.395 67.133 95.137 67.293 c 
94.883 67.457 94.516 67.539 94.039 67.539 c 93.488 67.539 93.098 67.387 
92.867 67.094 c 92.738 66.93 92.652 66.684 92.613 66.359 c 91.629 66.359
 l 91.648 67.133 91.902 67.672 92.383 67.973 c 92.867 68.277 93.426 68.43
 94.062 68.43 c 94.801 68.43 95.398 68.289 95.859 68.008 c 96.316 67.727
 96.547 67.289 96.547 66.695 c 96.547 63.078 l 96.547 62.969 96.57 62.883
 96.613 62.812 c 96.66 62.75 96.754 62.715 96.898 62.715 c 96.945 62.715
 96.996 62.719 97.055 62.723 c 97.113 62.73 97.176 62.738 97.242 62.75 c
 97.242 61.973 l 97.078 61.926 96.953 61.895 96.867 61.883 c 96.781 61.871
 96.664 61.867 96.516 61.867 c 96.152 61.867 95.891 61.996 95.727 62.254
 c 95.641 62.391 95.578 62.582 95.543 62.832 c 95.328 62.551 95.02 62.309
 94.617 62.102 c 94.215 61.895 93.773 61.789 93.289 61.789 c 92.707 61.789
 92.23 61.965 91.863 62.32 c 91.492 62.672 91.309 63.117 91.309 63.648 c
 91.309 64.23 91.488 64.68 91.852 65 c 92.215 65.32 92.691 65.52 93.281 
65.594 c h
98.484 70.027 m 99.551 70.027 l 99.551 68.273 l 100.551 68.273 l 100.551
 67.414 l 99.551 67.414 l 99.551 63.32 l 99.551 63.102 99.625 62.953 99.773
 62.879 c 99.855 62.836 99.992 62.812 100.184 62.812 c 100.234 62.812 100.289
 62.816 100.348 62.816 c 100.406 62.82 100.477 62.824 100.551 62.832 c 100.551
 62 l 100.43 61.965 100.305 61.938 100.176 61.922 c 100.043 61.906 99.902
 61.898 99.75 61.898 c 99.258 61.898 98.922 62.027 98.75 62.277 c 98.574
 62.531 98.484 62.855 98.484 63.258 c 98.484 67.414 l 97.637 67.414 l 97.637
 68.273 l 98.484 68.273 l h
101.602 68.246 m 102.676 68.246 l 102.676 62 l 101.602 62 l h
101.602 70.605 m 102.676 70.605 l 102.676 69.414 l 101.602 69.414 l h
104.258 68.273 m 105.262 68.273 l 105.262 67.387 l 105.555 67.75 105.871
 68.016 106.203 68.176 c 106.535 68.336 106.906 68.418 107.312 68.418 c 
108.199 68.418 108.801 68.105 109.113 67.484 c 109.289 67.145 109.375 66.656
 109.375 66.023 c 109.375 62 l 108.301 62 l 108.301 65.957 l 108.301 66.336
 108.246 66.648 108.133 66.883 c 107.945 67.273 107.605 67.469 107.113 67.469
 c 106.863 67.469 106.656 67.441 106.496 67.391 c 106.207 67.305 105.953
 67.133 105.734 66.875 c 105.559 66.668 105.445 66.453 105.391 66.234 c 
105.34 66.012 105.312 65.695 105.312 65.285 c 105.312 62 l 104.258 62 l 
h
114.434 68.023 m 114.633 67.887 114.836 67.688 115.043 67.426 c 115.043
 68.219 l 116.016 68.219 l 116.016 62.512 l 116.016 61.711 115.898 61.086
 115.664 60.625 c 115.227 59.773 114.398 59.344 113.188 59.344 c 112.512
 59.344 111.941 59.496 111.48 59.801 c 111.02 60.102 110.762 60.574 110.707
 61.219 c 111.781 61.219 l 111.832 60.938 111.93 60.723 112.082 60.57 c 
112.324 60.336 112.699 60.219 113.207 60.219 c 114.02 60.219 114.547 60.504
 114.797 61.074 c 114.945 61.41 115.012 62.012 115 62.875 c 114.793 62.555
 114.539 62.312 114.238 62.156 c 113.945 62 113.551 61.926 113.062 61.926
 c 112.383 61.926 111.789 62.164 111.277 62.648 c 110.77 63.129 110.512 
63.93 110.512 65.043 c 110.512 66.094 110.77 66.914 111.285 67.5 c 111.797
 68.094 112.418 68.387 113.145 68.387 c 113.637 68.387 114.066 68.266 114.434
 68.023 c h
114.562 66.895 m 114.242 67.27 113.832 67.457 113.336 67.457 c 112.594 
67.457 112.086 67.105 111.812 66.414 c 111.668 66.043 111.598 65.555 111.598
 64.953 c 111.598 64.246 111.742 63.707 112.027 63.34 c 112.316 62.969 112.699
 62.785 113.188 62.785 c 113.945 62.785 114.477 63.125 114.785 63.812 c 
114.957 64.199 115.043 64.648 115.043 65.164 c 115.043 65.941 114.883 66.52
 114.562 66.895 c h
114.562 66.895 m f
72.176 50.777 m 72.203 50.289 72.316 49.895 72.52 49.586 c 72.906 49.02
 73.59 48.73 74.566 48.73 c 75.004 48.73 75.402 48.793 75.762 48.918 c 76.457
 49.164 76.805 49.594 76.805 50.219 c 76.805 50.688 76.656 51.023 76.363
 51.223 c 76.066 51.418 75.605 51.586 74.969 51.73 c 73.805 51.996 l 73.043
 52.168 72.504 52.355 72.188 52.562 c 71.641 52.926 71.367 53.461 71.367
 54.176 c 71.367 54.949 71.637 55.586 72.172 56.082 c 72.703 56.574 73.465
 56.824 74.441 56.824 c 75.344 56.824 76.113 56.605 76.742 56.172 c 77.375
 55.734 77.688 55.039 77.688 54.082 c 76.594 54.082 l 76.535 54.543 76.41
 54.898 76.219 55.145 c 75.863 55.594 75.262 55.816 74.406 55.816 c 73.719
 55.816 73.227 55.672 72.926 55.383 c 72.625 55.094 72.473 54.758 72.473
 54.375 c 72.473 53.953 72.652 53.645 73 53.449 c 73.234 53.324 73.754 53.168
 74.566 52.98 c 75.773 52.707 l 76.355 52.574 76.805 52.391 77.121 52.16
 c 77.668 51.758 77.941 51.176 77.941 50.406 c 77.941 49.457 77.594 48.773
 76.902 48.363 c 76.207 47.953 75.402 47.75 74.484 47.75 c 73.414 47.75 
72.578 48.023 71.969 48.57 c 71.363 49.113 71.066 49.848 71.078 50.777 c
 h
83.191 54.273 m 84.359 54.273 l 84.211 53.875 83.879 52.957 83.371 51.523
 c 82.984 50.445 82.668 49.562 82.406 48.887 c 81.797 47.281 81.371 46.305
 81.121 45.957 c 80.871 45.605 80.438 45.426 79.828 45.426 c 79.684 45.426
 79.566 45.434 79.488 45.445 c 79.406 45.457 79.309 45.48 79.191 45.512 
c 79.191 46.473 l 79.375 46.422 79.508 46.391 79.59 46.379 c 79.672 46.367
 79.746 46.359 79.809 46.359 c 80 46.359 80.145 46.391 80.238 46.457 c 80.328
 46.52 80.406 46.602 80.469 46.695 c 80.488 46.727 80.559 46.887 80.68 47.176
 c 80.801 47.465 80.891 47.68 80.941 47.82 c 78.625 54.277 l 79.816 54.277
 l 81.5 49.168 l 83.191 54.277 l h
85.902 49.969 m 85.934 49.617 86.02 49.348 86.164 49.16 c 86.43 48.82 86.891
 48.648 87.547 48.648 c 87.938 48.648 88.281 48.734 88.578 48.906 c 88.875
 49.074 89.023 49.336 89.023 49.695 c 89.023 49.961 88.906 50.168 88.668
 50.309 c 88.516 50.395 88.215 50.492 87.766 50.605 c 86.926 50.82 l 86.391
 50.949 85.996 51.102 85.742 51.262 c 85.289 51.551 85.062 51.945 85.062
 52.449 c 85.062 53.043 85.277 53.523 85.703 53.887 c 86.133 54.258 86.707
 54.438 87.43 54.438 c 88.375 54.438 89.059 54.164 89.473 53.605 c 89.734
 53.258 89.863 52.875 89.855 52.469 c 88.859 52.469 l 88.84 52.711 88.754
 52.926 88.609 53.121 c 88.363 53.398 87.945 53.539 87.348 53.539 c 86.949
 53.539 86.648 53.461 86.441 53.309 c 86.238 53.156 86.137 52.957 86.137
 52.707 c 86.137 52.43 86.27 52.211 86.539 52.051 c 86.695 51.949 86.926
 51.867 87.23 51.793 c 87.926 51.621 l 88.688 51.438 89.191 51.262 89.453
 51.086 c 89.859 50.82 90.066 50.395 90.066 49.816 c 90.066 49.258 89.855
 48.773 89.43 48.367 c 89.008 47.961 88.359 47.762 87.496 47.762 c 86.562
 47.762 85.898 47.973 85.512 48.395 c 85.121 48.82 84.914 49.344 84.887 
49.969 c h
91.484 56.027 m 92.551 56.027 l 92.551 54.273 l 93.551 54.273 l 93.551 
53.414 l 92.551 53.414 l 92.551 49.32 l 92.551 49.102 92.625 48.953 92.773
 48.879 c 92.855 48.836 92.992 48.812 93.184 48.812 c 93.234 48.812 93.289
 48.816 93.348 48.816 c 93.406 48.82 93.473 48.824 93.551 48.832 c 93.551
 48 l 93.434 47.965 93.305 47.941 93.176 47.922 c 93.043 47.906 92.902 47.898
 92.75 47.898 c 92.258 47.898 91.922 48.027 91.75 48.277 c 91.574 48.531
 91.484 48.855 91.484 49.258 c 91.484 53.414 l 90.637 53.414 l 90.637 54.273
 l 91.484 54.273 l h
98.512 54.102 m 98.926 53.895 99.246 53.625 99.465 53.293 c 99.676 52.977
 99.816 52.605 99.887 52.184 c 99.949 51.895 99.98 51.434 99.98 50.801 c
 95.379 50.801 l 95.398 50.164 95.551 49.652 95.832 49.27 c 96.113 48.883
 96.547 48.691 97.141 48.691 c 97.688 48.691 98.129 48.875 98.457 49.238
 c 98.645 49.449 98.777 49.691 98.855 49.969 c 99.891 49.969 l 99.867 49.738
 99.773 49.48 99.621 49.199 c 99.465 48.914 99.293 48.684 99.102 48.504 
c 98.781 48.191 98.387 47.98 97.91 47.871 c 97.656 47.809 97.371 47.777 
97.051 47.777 c 96.27 47.777 95.609 48.062 95.062 48.629 c 94.52 49.199 
94.25 49.996 94.25 51.02 c 94.25 52.027 94.523 52.844 95.07 53.473 c 95.617
 54.102 96.332 54.418 97.215 54.418 c 97.66 54.418 98.094 54.312 98.512 
54.102 c h
98.895 51.637 m 98.852 52.094 98.754 52.461 98.598 52.734 c 98.309 53.242
 97.828 53.496 97.152 53.496 c 96.668 53.496 96.262 53.32 95.934 52.973 
c 95.605 52.621 95.43 52.176 95.41 51.637 c h
101.273 54.273 m 102.316 54.273 l 102.316 53.387 l 102.566 53.695 102.793
 53.918 102.996 54.059 c 103.344 54.297 103.738 54.418 104.18 54.418 c 104.68
 54.418 105.082 54.293 105.387 54.047 c 105.559 53.906 105.715 53.699 105.855
 53.426 c 106.09 53.762 106.363 54.012 106.68 54.172 c 107 54.336 107.355
 54.418 107.75 54.418 c 108.594 54.418 109.168 54.113 109.469 53.5 c 109.637
 53.176 109.719 52.73 109.719 52.176 c 109.719 48 l 108.621 48 l 108.621
 52.359 l 108.621 52.777 108.516 53.062 108.309 53.219 c 108.098 53.375 
107.844 53.457 107.543 53.457 c 107.129 53.457 106.773 53.316 106.473 53.039
 c 106.176 52.762 106.023 52.301 106.023 51.648 c 106.023 48 l 104.953 48
 l 104.953 52.094 l 104.953 52.523 104.902 52.832 104.801 53.027 c 104.641
 53.32 104.344 53.469 103.906 53.469 c 103.508 53.469 103.145 53.312 102.816
 53.004 c 102.492 52.695 102.328 52.137 102.328 51.328 c 102.328 48 l 101.273
 48 l h
101.273 54.273 m f
  Q
Q
  Q
Q
  Q
Q
q
0 307 562 -307 re W n
  q
q
0 307 562 -307 re W n
  q
1 g
157.5 79.5 m 173.5 79.5 l 173.5 59.5 l 157.5 59.5 l 157.5 63.5 l 153.5 
63.5 l 153.5 67.5 l 157.5 67.5 l 157.5 71.5 l 153.5 71.5 l 153.5 75.5 l 
157.5 75.5 l h
157.5 79.5 m f
0 g
1 w
0 J
0 j
[] 0.0 d
10 M 157.5 79.5 m 173.5 79.5 l 173.5 59.5 l 157.5 59.5 l 157.5 63.5 l 153.5 
63.5 l 153.5 67.5 l 157.5 67.5 l 157.5 71.5 l 153.5 71.5 l 153.5 75.5 l 
157.5 75.5 l h
157.5 79.5 m S
157.5 75.5 m 161.5 75.5 l 161.5 71.5 l 157.5 71.5 l 157.5 67.5 m 161.5 
67.5 l 161.5 63.5 l 157.5 63.5 l S
95 140 m 95 86 l S
87 148 m 87 142.668 89.668 140 95 140 c 100.332 140 103 142.668 103 148
 c S
1 g
90.5 149.5 m 90.5 152.262 92.738 154.5 95.5 154.5 c 98.262 154.5 100.5 
152.262 100.5 149.5 c 100.5 146.738 98.262 144.5 95.5 144.5 c 92.738 144.5
 90.5 146.738 90.5 149.5 c h
90.5 149.5 m f
0 g
90.5 149.5 m 90.5 152.262 92.738 154.5 95.5 154.5 c 98.262 154.5 100.5 
152.262 100.5 149.5 c 100.5 146.738 98.262 144.5 95.5 144.5 c 92.738 144.5
 90.5 146.738 90.5 149.5 c h
90.5 149.5 m S
95.5 154.5 m 95.5 216.5 l S
  Q
Q
  Q
Q
q
0 307 562 -307 re W n
  q
q
0 307 562 -307 re W n
  q
Q q
36 157 44 -28 re W n
q
36 157 44 -28 re W n
  q
0 g
39.266 155.605 m 41.738 148.277 l 44.184 155.605 l 45.488 155.605 l 42.348
 147 l 41.109 147 l 37.977 155.605 l h
50.355 153.102 m 50.77 152.895 51.09 152.625 51.309 152.293 c 51.52 151.977
 51.66 151.605 51.73 151.184 c 51.793 150.895 51.824 150.434 51.824 149.801
 c 47.223 149.801 l 47.242 149.164 47.395 148.652 47.676 148.27 c 47.957
 147.883 48.391 147.691 48.984 147.691 c 49.531 147.691 49.973 147.875 50.301
 148.238 c 50.488 148.449 50.621 148.691 50.699 148.969 c 51.734 148.969
 l 51.711 148.738 51.617 148.48 51.465 148.199 c 51.309 147.914 51.137 147.684
 50.945 147.504 c 50.625 147.191 50.23 146.98 49.754 146.871 c 49.5 146.809
 49.215 146.777 48.895 146.777 c 48.113 146.777 47.453 147.062 46.906 147.629
 c 46.363 148.199 46.094 148.996 46.094 150.02 c 46.094 151.027 46.367 151.844
 46.914 152.473 c 47.461 153.102 48.176 153.418 49.059 153.418 c 49.504 
153.418 49.938 153.312 50.355 153.102 c h
50.738 150.637 m 50.695 151.094 50.598 151.461 50.441 151.734 c 50.152 
152.242 49.672 152.496 48.996 152.496 c 48.512 152.496 48.105 152.32 47.777
 151.973 c 47.449 151.621 47.273 151.176 47.254 150.637 c h
53.145 153.273 m 54.148 153.273 l 54.148 152.191 l 54.23 152.402 54.434
 152.66 54.75 152.961 c 55.074 153.266 55.441 153.418 55.859 153.418 c 55.879
 153.418 55.91 153.414 55.961 153.41 c 56.004 153.406 56.086 153.398 56.199
 153.387 c 56.199 152.273 l 56.137 152.285 56.078 152.293 56.027 152.297
 c 55.973 152.301 55.918 152.305 55.855 152.305 c 55.324 152.305 54.914 
152.133 54.629 151.789 c 54.344 151.449 54.203 151.055 54.203 150.609 c 
54.203 147 l 53.148 147 l 53.148 153.273 l h
57.73 148.969 m 57.762 148.617 57.848 148.348 57.992 148.16 c 58.258 147.82
 58.719 147.648 59.375 147.648 c 59.766 147.648 60.109 147.734 60.406 147.906
 c 60.703 148.074 60.852 148.336 60.852 148.695 c 60.852 148.961 60.734 
149.168 60.496 149.309 c 60.344 149.395 60.043 149.492 59.594 149.605 c 
58.754 149.82 l 58.219 149.949 57.824 150.102 57.57 150.262 c 57.117 150.551
 56.891 150.945 56.891 151.449 c 56.891 152.043 57.105 152.523 57.531 152.887
 c 57.961 153.258 58.535 153.438 59.258 153.438 c 60.203 153.438 60.887 
153.164 61.301 152.605 c 61.562 152.258 61.691 151.875 61.684 151.469 c 
60.688 151.469 l 60.668 151.711 60.582 151.926 60.438 152.121 c 60.191 152.398
 59.773 152.539 59.176 152.539 c 58.777 152.539 58.477 152.461 58.27 152.309
 c 58.066 152.156 57.965 151.957 57.965 151.707 c 57.965 151.43 58.098 151.211
 58.367 151.051 c 58.523 150.949 58.754 150.867 59.059 150.793 c 59.754 
150.621 l 60.516 150.438 61.02 150.262 61.281 150.086 c 61.688 149.82 61.895
 149.395 61.895 148.816 c 61.895 148.258 61.684 147.773 61.258 147.367 c
 60.836 146.961 60.188 146.762 59.324 146.762 c 58.391 146.762 57.727 146.973
 57.34 147.395 c 56.949 147.82 56.742 148.344 56.715 148.969 c h
63.102 153.246 m 64.172 153.246 l 64.172 147 l 63.102 147 l h
63.102 155.605 m 64.172 155.605 l 64.172 154.414 l 63.102 154.414 l h
69.688 148.473 m 69.945 149.004 70.078 149.594 70.078 150.242 c 70.078 
150.824 69.984 151.305 69.797 151.668 c 69.5 152.25 68.984 152.539 68.262
 152.539 c 67.613 152.539 67.145 152.293 66.855 151.801 c 66.562 151.305
 66.414 150.711 66.414 150.02 c 66.414 149.352 66.562 148.793 66.855 148.348
 c 67.145 147.902 67.609 147.68 68.25 147.68 c 68.949 147.68 69.426 147.945
 69.688 148.473 c h
70.34 152.648 m 70.898 152.109 71.176 151.316 71.176 150.27 c 71.176 149.258
 70.934 148.422 70.438 147.762 c 69.949 147.102 69.184 146.773 68.148 146.773
 c 67.285 146.773 66.598 147.062 66.094 147.648 c 65.582 148.23 65.328 149.016
 65.328 150 c 65.328 151.055 65.598 151.895 66.133 152.52 c 66.668 153.145
 67.387 153.457 68.289 153.457 c 69.098 153.457 69.781 153.188 70.34 152.648
 c h
72.43 153.273 m 73.434 153.273 l 73.434 152.387 l 73.73 152.75 74.043 153.016
 74.375 153.176 c 74.707 153.336 75.078 153.418 75.484 153.418 c 76.375 
153.418 76.973 153.105 77.285 152.484 c 77.457 152.145 77.547 151.656 77.547
 151.023 c 77.547 147 l 76.473 147 l 76.473 150.957 l 76.473 151.336 76.418
 151.648 76.301 151.883 c 76.113 152.273 75.777 152.469 75.281 152.469 c
 75.031 152.469 74.828 152.441 74.668 152.391 c 74.379 152.305 74.125 152.133
 73.906 151.875 c 73.73 151.668 73.617 151.453 73.562 151.234 c 73.512 151.012
 73.484 150.695 73.484 150.285 c 73.484 147 l 72.43 147 l h
72.43 153.273 m f
44.918 138.941 m 45.363 138.598 45.629 138.008 45.719 137.168 c 44.691 
137.168 l 44.629 137.555 44.488 137.875 44.266 138.129 c 44.043 138.387 
43.688 138.512 43.191 138.512 c 42.52 138.512 42.043 138.188 41.75 137.531
 c 41.562 137.105 41.469 136.578 41.469 135.953 c 41.469 135.324 41.605 
134.793 41.871 134.367 c 42.137 133.938 42.551 133.719 43.125 133.719 c 
43.562 133.719 43.906 133.855 44.164 134.121 c 44.418 134.391 44.594 134.758
 44.691 135.219 c 45.719 135.219 l 45.602 134.387 45.309 133.781 44.84 133.395
 c 44.371 133.012 43.77 132.82 43.043 132.82 c 42.219 132.82 41.566 133.117
 41.078 133.719 c 40.59 134.316 40.344 135.066 40.344 135.965 c 40.344 137.066
 40.613 137.926 41.148 138.539 c 41.684 139.148 42.363 139.457 43.191 139.457
 c 43.902 139.457 44.477 139.285 44.918 138.941 c h
50.703 134.473 m 50.961 135.004 51.094 135.594 51.094 136.242 c 51.094 
136.824 51 137.305 50.812 137.668 c 50.516 138.25 50 138.539 49.277 138.539
 c 48.629 138.539 48.16 138.293 47.871 137.801 c 47.578 137.305 47.43 136.711
 47.43 136.02 c 47.43 135.352 47.578 134.793 47.871 134.348 c 48.16 133.902
 48.625 133.68 49.266 133.68 c 49.965 133.68 50.441 133.945 50.703 134.473
 c h
51.355 138.648 m 51.914 138.109 52.191 137.316 52.191 136.27 c 52.191 135.258
 51.949 134.422 51.453 133.762 c 50.965 133.102 50.199 132.773 49.164 132.773
 c 48.301 132.773 47.613 133.062 47.109 133.648 c 46.598 134.23 46.344 135.016
 46.344 136 c 46.344 137.055 46.613 137.895 47.148 138.52 c 47.684 139.145
 48.402 139.457 49.305 139.457 c 50.113 139.457 50.797 139.188 51.355 138.648
 c h
53.445 139.273 m 54.449 139.273 l 54.449 138.387 l 54.746 138.75 55.059
 139.016 55.391 139.176 c 55.723 139.336 56.094 139.418 56.5 139.418 c 57.391
 139.418 57.988 139.105 58.301 138.484 c 58.473 138.145 58.562 137.656 58.562
 137.023 c 58.562 133 l 57.488 133 l 57.488 136.957 l 57.488 137.336 57.434
 137.648 57.316 137.883 c 57.129 138.273 56.793 138.469 56.297 138.469 c
 56.047 138.469 55.844 138.441 55.684 138.391 c 55.395 138.305 55.141 138.133
 54.922 137.875 c 54.746 137.668 54.633 137.453 54.578 137.234 c 54.527 
137.012 54.5 136.695 54.5 136.285 c 54.5 133 l 53.445 133 l h
60.328 141.027 m 61.395 141.027 l 61.395 139.273 l 62.395 139.273 l 62.395
 138.414 l 61.395 138.414 l 61.395 134.32 l 61.395 134.102 61.469 133.953
 61.617 133.879 c 61.699 133.836 61.836 133.812 62.027 133.812 c 62.078 
133.812 62.133 133.816 62.191 133.816 c 62.25 133.82 62.316 133.824 62.395
 133.832 c 62.395 133 l 62.277 132.965 62.148 132.938 62.02 132.922 c 61.887
 132.906 61.746 132.898 61.594 132.898 c 61.102 132.898 60.766 133.027 60.594
 133.277 c 60.418 133.531 60.328 133.855 60.328 134.258 c 60.328 138.414
 l 59.48 138.414 l 59.48 139.273 l 60.328 139.273 l h
63.473 139.273 m 64.477 139.273 l 64.477 138.191 l 64.559 138.402 64.762
 138.66 65.078 138.961 c 65.402 139.266 65.77 139.418 66.188 139.418 c 66.207
 139.418 66.238 139.414 66.289 139.41 c 66.332 139.406 66.414 139.398 66.527
 139.387 c 66.527 138.273 l 66.465 138.285 66.406 138.293 66.355 138.297
 c 66.301 138.301 66.246 138.305 66.184 138.305 c 65.652 138.305 65.242 
138.133 64.957 137.789 c 64.672 137.449 64.531 137.055 64.531 136.609 c 
64.531 133 l 63.477 133 l 63.477 139.273 l h
71.359 134.473 m 71.617 135.004 71.75 135.594 71.75 136.242 c 71.75 136.824
 71.656 137.305 71.469 137.668 c 71.172 138.25 70.656 138.539 69.934 138.539
 c 69.285 138.539 68.816 138.293 68.527 137.801 c 68.234 137.305 68.086 
136.711 68.086 136.02 c 68.086 135.352 68.234 134.793 68.527 134.348 c 68.816
 133.902 69.281 133.68 69.922 133.68 c 70.621 133.68 71.098 133.945 71.359
 134.473 c h
72.012 138.648 m 72.57 138.109 72.848 137.316 72.848 136.27 c 72.848 135.258
 72.605 134.422 72.109 133.762 c 71.621 133.102 70.855 132.773 69.82 132.773
 c 68.957 132.773 68.27 133.062 67.766 133.648 c 67.254 134.23 67 135.016
 67 136 c 67 137.055 67.27 137.895 67.805 138.52 c 68.34 139.145 69.059 
139.457 69.961 139.457 c 70.77 139.457 71.453 139.188 72.012 138.648 c h
74.129 141.605 m 75.188 141.605 l 75.188 133 l 74.129 133 l h
74.129 141.605 m f
  Q
Q
  Q
Q
  Q
Q
q
0 307 562 -307 re W n
  q
q
0 307 562 -307 re W n
  q
1 g
270.5 306.5 180 -90 re f
0 g
1 w
0 J
0 j
[] 0.0 d
10 M 270.5 306.5 180 -90 re S
  Q
Q
  Q
Q
q
0 307 562 -307 re W n
  q
q
0 307 562 -307 re W n
  q
Q q
271 306 179 -89 re W n
q
271 306 179 -89 re W n
  q
0 g
307.578 275.98 m 308.18 275.406 308.512 274.754 308.582 274.023 c 307.445
 274.023 l 307.312 274.578 307.059 275.016 306.672 275.344 c 306.289 275.668
 305.75 275.828 305.051 275.828 c 304.207 275.828 303.52 275.531 303 274.934
 c 302.477 274.34 302.219 273.426 302.219 272.195 c 302.219 271.188 302.453
 270.371 302.922 269.742 c 303.395 269.117 304.094 268.801 305.031 268.801
 c 305.887 268.801 306.543 269.133 306.992 269.793 c 307.23 270.141 307.406
 270.598 307.523 271.164 c 308.664 271.164 l 308.562 270.258 308.227 269.5
 307.656 268.887 c 306.969 268.145 306.051 267.777 304.887 267.777 c 303.887
 267.777 303.051 268.078 302.367 268.688 c 301.477 269.484 301.027 270.723
 301.027 272.395 c 301.027 273.664 301.363 274.703 302.035 275.516 c 302.762
 276.402 303.762 276.844 305.039 276.844 c 306.133 276.844 306.977 276.555
 307.578 275.98 c h
313.859 269.473 m 314.117 270.004 314.25 270.594 314.25 271.238 c 314.25
 271.828 314.156 272.301 313.969 272.672 c 313.668 273.25 313.156 273.535
 312.43 273.535 c 311.789 273.535 311.32 273.293 311.023 272.797 c 310.73
 272.309 310.586 271.715 310.586 271.016 c 310.586 270.348 310.73 269.793
 311.023 269.348 c 311.32 268.902 311.781 268.68 312.418 268.68 c 313.117
 268.68 313.598 268.945 313.859 269.473 c h
314.512 273.648 m 315.07 273.109 315.352 272.316 315.352 271.27 c 315.352
 270.258 315.102 269.422 314.613 268.762 c 314.117 268.102 313.355 267.77
 312.32 267.77 c 311.457 267.77 310.77 268.062 310.262 268.648 c 309.758
 269.23 309.5 270.016 309.5 271 c 309.5 272.055 309.77 272.895 310.305 273.52
 c 310.84 274.145 311.559 274.457 312.461 274.457 c 313.27 274.457 313.953
 274.188 314.512 273.648 c h
316.602 274.277 m 317.602 274.277 l 317.602 273.387 l 317.898 273.75 318.215
 274.016 318.547 274.176 c 318.879 274.336 319.25 274.418 319.656 274.418
 c 320.543 274.418 321.145 274.105 321.457 273.484 c 321.633 273.145 321.719
 272.656 321.719 272.027 c 321.719 268 l 320.645 268 l 320.645 271.953 l
 320.645 272.34 320.59 272.645 320.477 272.879 c 320.289 273.27 319.949 
273.469 319.457 273.469 c 319.207 273.469 319 273.441 318.84 273.391 c 318.551
 273.305 318.297 273.133 318.078 272.875 c 317.902 272.668 317.789 272.453
 317.734 272.234 c 317.684 272.012 317.656 271.699 317.656 271.289 c 317.656
 268 l 316.602 268 l h
323.484 276.027 m 324.551 276.027 l 324.551 274.277 l 325.551 274.277 l
 325.551 273.414 l 324.551 273.414 l 324.551 269.316 l 324.551 269.098 324.625
 268.953 324.773 268.879 c 324.855 268.836 324.992 268.816 325.184 268.816
 c 325.234 268.816 325.289 268.816 325.348 268.816 c 325.406 268.82 325.477
 268.824 325.551 268.832 c 325.551 268 l 325.43 267.965 325.305 267.938 
325.176 267.922 c 325.043 267.906 324.902 267.898 324.75 267.898 c 324.258
 267.898 323.926 268.027 323.75 268.277 c 323.574 268.531 323.484 268.855
 323.484 269.258 c 323.484 273.414 l 322.637 273.414 l 322.637 274.273 l
 323.484 274.273 l h
326.602 274.246 m 327.676 274.246 l 327.676 268 l 326.602 268 l h
326.602 276.609 m 327.676 276.609 l 327.676 275.41 l 326.602 275.41 l h
329.258 274.277 m 330.262 274.277 l 330.262 273.387 l 330.555 273.75 330.871
 274.016 331.203 274.176 c 331.535 274.336 331.906 274.418 332.312 274.418
 c 333.199 274.418 333.801 274.105 334.113 273.484 c 334.289 273.145 334.375
 272.656 334.375 272.027 c 334.375 268 l 333.301 268 l 333.301 271.953 l
 333.301 272.34 333.246 272.645 333.133 272.879 c 332.945 273.27 332.602
 273.469 332.113 273.469 c 331.863 273.469 331.656 273.441 331.496 273.391
 c 331.207 273.305 330.953 273.133 330.734 272.875 c 330.559 272.668 330.445
 272.453 330.391 272.234 c 330.34 272.012 330.312 271.699 330.312 271.289
 c 330.312 268 l 329.258 268 l h
336.984 274.277 m 336.984 270.109 l 336.984 269.789 337.035 269.527 337.137
 269.324 c 337.324 268.949 337.676 268.762 338.188 268.762 c 338.918 268.762
 339.418 269.09 339.688 269.746 c 339.832 270.098 339.902 270.578 339.902
 271.191 c 339.902 274.277 l 340.957 274.277 l 340.957 268 l 339.961 268
 l 339.973 268.926 l 339.836 268.688 339.664 268.484 339.461 268.324 c 339.059
 267.996 338.57 267.828 337.996 267.828 c 337.102 267.828 336.492 268.129
 336.168 268.727 c 335.992 269.047 335.906 269.473 335.906 270.012 c 335.906
 274.277 l h
346.531 269.473 m 346.789 270.004 346.918 270.594 346.918 271.238 c 346.918
 271.828 346.828 272.301 346.637 272.672 c 346.344 273.25 345.832 273.535
 345.102 273.535 c 344.457 273.535 343.988 273.293 343.699 272.797 c 343.406
 272.309 343.258 271.715 343.258 271.016 c 343.258 270.348 343.406 269.793
 343.699 269.348 c 343.988 268.902 344.457 268.68 345.094 268.68 c 345.789
 268.68 346.27 268.945 346.531 269.473 c h
347.184 273.648 m 347.742 273.109 348.02 272.316 348.02 271.27 c 348.02
 270.258 347.773 269.422 347.281 268.762 c 346.789 268.102 346.027 267.77
 344.992 267.77 c 344.129 267.77 343.445 268.062 342.938 268.648 c 342.426
 269.23 342.176 270.016 342.176 271 c 342.176 272.055 342.441 272.895 342.977
 273.52 c 343.512 274.145 344.23 274.457 345.133 274.457 c 345.941 274.457
 346.625 274.188 347.184 273.648 c h
350.328 274.277 m 350.328 270.109 l 350.328 269.789 350.379 269.527 350.48
 269.324 c 350.668 268.949 351.02 268.762 351.531 268.762 c 352.262 268.762
 352.762 269.09 353.031 269.746 c 353.176 270.098 353.246 270.578 353.246
 271.191 c 353.246 274.277 l 354.301 274.277 l 354.301 268 l 353.305 268
 l 353.316 268.926 l 353.18 268.688 353.008 268.484 352.805 268.324 c 352.402
 267.996 351.914 267.828 351.34 267.828 c 350.445 267.828 349.836 268.129
 349.512 268.727 c 349.336 269.047 349.25 269.473 349.25 270.012 c 349.25
 274.277 l h
356.574 269.969 m 356.602 269.617 356.691 269.348 356.836 269.16 c 357.102
 268.82 357.562 268.652 358.219 268.652 c 358.609 268.652 358.953 268.734
 359.25 268.906 c 359.547 269.074 359.695 269.34 359.695 269.691 c 359.695
 269.965 359.574 270.168 359.336 270.309 c 359.188 270.395 358.887 270.496
 358.438 270.609 c 357.598 270.816 l 357.062 270.953 356.668 271.098 356.414
 271.266 c 355.961 271.547 355.734 271.941 355.734 272.449 c 355.734 273.043
 355.949 273.52 356.375 273.891 c 356.805 274.254 357.379 274.438 358.102
 274.438 c 359.047 274.438 359.727 274.16 360.145 273.609 c 360.406 273.254
 360.535 272.875 360.527 272.469 c 359.531 272.469 l 359.512 272.707 359.426
 272.926 359.281 273.121 c 359.039 273.398 358.617 273.535 358.02 273.535
 c 357.621 273.535 357.32 273.461 357.113 273.309 c 356.91 273.156 356.805
 272.953 356.805 272.703 c 356.805 272.434 356.941 272.215 357.211 272.047
 c 357.367 271.949 357.598 271.863 357.902 271.793 c 358.602 271.621 l 359.355
 271.438 359.863 271.262 360.125 271.09 c 360.531 270.816 360.738 270.395
 360.738 269.816 c 360.738 269.258 360.527 268.777 360.102 268.371 c 359.68
 267.965 359.031 267.762 358.164 267.762 c 357.23 267.762 356.57 267.973
 356.184 268.395 c 355.793 268.82 355.586 269.344 355.559 269.969 c h
365.273 274.246 m 366.344 274.246 l 366.344 268 l 365.273 268 l h
365.273 276.609 m 366.344 276.609 l 366.344 275.41 l 365.273 275.41 l h
367.93 274.277 m 368.93 274.277 l 368.93 273.387 l 369.227 273.75 369.543
 274.016 369.875 274.176 c 370.207 274.336 370.574 274.418 370.98 274.418
 c 371.875 274.418 372.477 274.105 372.789 273.484 c 372.957 273.145 373.043
 272.656 373.043 272.027 c 373.043 268 l 371.973 268 l 371.973 271.953 l
 371.973 272.34 371.918 272.645 371.801 272.879 c 371.613 273.27 371.273
 273.469 370.781 273.469 c 370.531 273.469 370.328 273.441 370.168 273.391
 c 369.879 273.305 369.625 273.133 369.406 272.875 c 369.23 272.668 369.117
 272.453 369.062 272.234 c 369.012 272.012 368.984 271.699 368.984 271.289
 c 368.984 268 l 367.93 268 l h
374.812 276.027 m 375.879 276.027 l 375.879 274.277 l 376.883 274.277 l
 376.883 273.414 l 375.879 273.414 l 375.879 269.316 l 375.879 269.098 375.953
 268.953 376.102 268.879 c 376.184 268.836 376.32 268.816 376.512 268.816
 c 376.562 268.816 376.617 268.816 376.676 268.816 c 376.734 268.82 376.801
 268.824 376.883 268.832 c 376.883 268 l 376.762 267.965 376.633 267.938
 376.504 267.922 c 376.371 267.906 376.23 267.898 376.078 267.898 c 375.586
 267.898 375.25 268.027 375.074 268.277 c 374.898 268.531 374.812 268.855
 374.812 269.258 c 374.812 273.414 l 373.961 273.414 l 373.961 274.273 l
 374.812 274.273 l h
381.836 274.102 m 382.258 273.895 382.574 273.625 382.793 273.293 c 383.004
 272.973 383.145 272.605 383.215 272.184 c 383.277 271.895 383.309 271.434
 383.309 270.801 c 378.707 270.801 l 378.727 270.164 378.879 269.652 379.16
 269.27 c 379.441 268.883 379.875 268.691 380.465 268.691 c 381.016 268.691
 381.457 268.875 381.785 269.234 c 381.973 269.449 382.105 269.691 382.184
 269.969 c 383.219 269.969 l 383.191 269.738 383.102 269.48 382.949 269.199
 c 382.793 268.914 382.621 268.684 382.43 268.504 c 382.109 268.191 381.711
 267.98 381.238 267.871 c 380.984 267.809 380.699 267.777 380.379 267.777
 c 379.598 267.777 378.934 268.062 378.391 268.629 c 377.848 269.199 377.578
 269.996 377.578 271.016 c 377.578 272.027 377.852 272.844 378.398 273.473
 c 378.945 274.102 379.66 274.418 380.543 274.418 c 380.988 274.418 381.418
 274.312 381.836 274.102 c h
382.227 271.641 m 382.18 272.094 382.082 272.461 381.926 272.734 c 381.637
 273.242 381.156 273.496 380.477 273.496 c 379.992 273.496 379.586 273.32
 379.262 272.973 c 378.93 272.621 378.758 272.176 378.738 271.641 c h
388.105 274.023 m 388.305 273.887 388.508 273.688 388.715 273.426 c 388.715
 274.219 l 389.688 274.219 l 389.688 268.512 l 389.688 267.715 389.57 267.082
 389.336 266.625 c 388.898 265.77 388.074 265.344 386.855 265.344 c 386.18
 265.344 385.613 265.496 385.152 265.801 c 384.691 266.102 384.434 266.578
 384.379 267.219 c 385.449 267.219 l 385.504 266.938 385.602 266.723 385.758
 266.57 c 385.992 266.336 386.367 266.219 386.883 266.219 c 387.688 266.219
 388.219 266.504 388.469 267.074 c 388.617 267.41 388.688 268.012 388.676
 268.875 c 388.461 268.551 388.207 268.312 387.914 268.156 c 387.613 268
 387.223 267.922 386.734 267.922 c 386.055 267.922 385.461 268.164 384.949
 268.648 c 384.441 269.129 384.188 269.926 384.188 271.043 c 384.188 272.094
 384.441 272.91 384.957 273.5 c 385.469 274.094 386.09 274.387 386.816 274.387
 c 387.309 274.387 387.738 274.266 388.105 274.023 c h
388.234 272.891 m 387.914 273.266 387.508 273.453 387.012 273.453 c 386.27
 273.453 385.762 273.109 385.488 272.41 c 385.344 272.043 385.27 271.555
 385.27 270.953 c 385.27 270.246 385.414 269.707 385.699 269.34 c 385.988
 268.969 386.375 268.785 386.855 268.785 c 387.613 268.785 388.148 269.125
 388.457 269.812 c 388.629 270.199 388.715 270.648 388.715 271.164 c 388.715
 271.941 388.555 272.516 388.234 272.891 c h
391.301 274.277 m 392.305 274.277 l 392.305 273.191 l 392.387 273.402 392.586
 273.66 392.906 273.961 c 393.227 274.266 393.598 274.418 394.016 274.418
 c 394.035 274.418 394.066 274.414 394.113 274.41 c 394.164 274.406 394.242
 274.398 394.355 274.387 c 394.355 273.273 l 394.293 273.285 394.234 273.293
 394.184 273.297 c 394.129 273.301 394.07 273.301 394.008 273.301 c 393.477
 273.301 393.07 273.133 392.785 272.789 c 392.5 272.449 392.355 272.055 
392.355 271.609 c 392.355 268 l 391.301 268 l h
396.398 268.949 m 396.625 268.773 396.887 268.688 397.191 268.688 c 397.562
 268.688 397.922 268.773 398.27 268.941 c 398.855 269.23 399.148 269.695
 399.148 270.344 c 399.148 271.191 l 399.02 271.113 398.852 271.043 398.648
 270.988 c 398.449 270.934 398.25 270.895 398.051 270.871 c 397.414 270.789
 l 397.031 270.738 396.742 270.66 396.551 270.551 c 396.227 270.367 396.066
 270.074 396.066 269.672 c 396.066 269.367 396.176 269.125 396.398 268.949
 c h
398.621 271.801 m 398.863 271.832 399.023 271.938 399.105 272.109 c 399.156
 272.203 399.176 272.336 399.176 272.512 c 399.176 272.871 399.051 273.133
 398.793 273.293 c 398.539 273.457 398.172 273.535 397.695 273.535 c 397.145
 273.535 396.754 273.391 396.523 273.094 c 396.395 272.926 396.309 272.684
 396.27 272.359 c 395.285 272.359 l 395.305 273.133 395.559 273.672 396.039
 273.973 c 396.523 274.277 397.082 274.426 397.719 274.426 c 398.457 274.426
 399.055 274.285 399.516 274.004 c 399.973 273.723 400.203 273.285 400.203
 272.691 c 400.203 269.078 l 400.203 268.969 400.227 268.879 400.27 268.812
 c 400.316 268.746 400.41 268.715 400.555 268.715 c 400.602 268.715 400.652
 268.719 400.711 268.723 c 400.773 268.73 400.832 268.738 400.898 268.75
 c 400.898 267.973 l 400.738 267.926 400.613 267.895 400.523 267.883 c 400.441
 267.871 400.324 267.867 400.176 267.867 c 399.812 267.867 399.547 267.996
 399.383 268.254 c 399.297 268.391 399.238 268.582 399.199 268.832 c 398.988
 268.551 398.676 268.309 398.273 268.102 c 397.875 267.895 397.43 267.789
 396.945 267.789 c 396.363 267.789 395.887 267.965 395.52 268.32 c 395.148
 268.672 394.965 269.117 394.965 269.648 c 394.965 270.23 395.145 270.68
 395.512 271 c 395.875 271.32 396.352 271.52 396.938 271.594 c 398.621 271.805
 l h
402.141 276.027 m 403.207 276.027 l 403.207 274.277 l 404.207 274.277 l
 404.207 273.414 l 403.207 273.414 l 403.207 269.316 l 403.207 269.098 403.281
 268.953 403.43 268.879 c 403.512 268.836 403.648 268.816 403.84 268.816
 c 403.891 268.816 403.945 268.816 404.004 268.816 c 404.062 268.82 404.133
 268.824 404.207 268.832 c 404.207 268 l 404.086 267.965 403.961 267.938
 403.832 267.922 c 403.699 267.906 403.559 267.898 403.406 267.898 c 402.914
 267.898 402.582 268.027 402.406 268.277 c 402.227 268.531 402.141 268.855
 402.141 269.258 c 402.141 273.414 l 401.289 273.414 l 401.289 274.273 l
 402.141 274.273 l h
405.258 274.246 m 406.332 274.246 l 406.332 268 l 405.258 268 l h
405.258 276.609 m 406.332 276.609 l 406.332 275.41 l 405.258 275.41 l h
411.844 269.473 m 412.102 270.004 412.23 270.594 412.23 271.238 c 412.23
 271.828 412.141 272.301 411.949 272.672 c 411.656 273.25 411.145 273.535
 410.414 273.535 c 409.77 273.535 409.301 273.293 409.012 272.797 c 408.719
 272.309 408.57 271.715 408.57 271.016 c 408.57 270.348 408.719 269.793 
409.012 269.348 c 409.301 268.902 409.77 268.68 410.406 268.68 c 411.102
 268.68 411.582 268.945 411.844 269.473 c h
412.496 273.648 m 413.055 273.109 413.332 272.316 413.332 271.27 c 413.332
 270.258 413.086 269.422 412.594 268.762 c 412.102 268.102 411.34 267.77
 410.305 267.77 c 409.441 267.77 408.758 268.062 408.25 268.648 c 407.738
 269.23 407.488 270.016 407.488 271 c 407.488 272.055 407.754 272.895 408.289
 273.52 c 408.824 274.145 409.543 274.457 410.445 274.457 c 411.254 274.457
 411.938 274.188 412.496 273.648 c h
414.586 274.277 m 415.586 274.277 l 415.586 273.387 l 415.887 273.75 416.199
 274.016 416.531 274.176 c 416.863 274.336 417.23 274.418 417.637 274.418
 c 418.531 274.418 419.133 274.105 419.445 273.484 c 419.613 273.145 419.699
 272.656 419.699 272.027 c 419.699 268 l 418.629 268 l 418.629 271.953 l
 418.629 272.34 418.574 272.645 418.457 272.879 c 418.27 273.27 417.93 273.469
 417.438 273.469 c 417.188 273.469 416.984 273.441 416.824 273.391 c 416.535
 273.305 416.281 273.133 416.062 272.875 c 415.887 272.668 415.773 272.453
 415.719 272.234 c 415.668 272.012 415.641 271.699 415.641 271.289 c 415.641
 268 l 414.586 268 l h
414.586 274.277 m f
351.812 262.027 m 352.879 262.027 l 352.879 260.277 l 353.883 260.277 l
 353.883 259.414 l 352.879 259.414 l 352.879 255.316 l 352.879 255.098 352.953
 254.953 353.102 254.879 c 353.184 254.836 353.32 254.816 353.512 254.816
 c 353.562 254.816 353.617 254.816 353.676 254.816 c 353.734 254.82 353.801
 254.824 353.883 254.832 c 353.883 254 l 353.762 253.965 353.633 253.938
 353.504 253.922 c 353.371 253.906 353.23 253.898 353.078 253.898 c 352.586
 253.898 352.25 254.027 352.074 254.277 c 351.898 254.531 351.812 254.855
 351.812 255.258 c 351.812 259.414 l 350.961 259.414 l 350.961 260.273 l
 351.812 260.273 l h
358.859 255.473 m 359.117 256.004 359.25 256.594 359.25 257.238 c 359.25
 257.828 359.156 258.301 358.969 258.672 c 358.668 259.25 358.156 259.535
 357.43 259.535 c 356.789 259.535 356.32 259.293 356.023 258.797 c 355.73
 258.309 355.586 257.715 355.586 257.016 c 355.586 256.348 355.73 255.793
 356.023 255.348 c 356.32 254.902 356.781 254.68 357.418 254.68 c 358.117
 254.68 358.598 254.945 358.859 255.473 c h
359.512 259.648 m 360.07 259.109 360.352 258.316 360.352 257.27 c 360.352
 256.258 360.102 255.422 359.613 254.762 c 359.117 254.102 358.355 253.77
 357.32 253.77 c 356.457 253.77 355.77 254.062 355.262 254.648 c 354.758
 255.23 354.5 256.016 354.5 257 c 354.5 258.055 354.77 258.895 355.305 259.52
 c 355.84 260.145 356.559 260.457 357.461 260.457 c 358.27 260.457 358.953
 260.188 359.512 259.648 c h
365.531 255.473 m 365.789 256.004 365.918 256.594 365.918 257.238 c 365.918
 257.828 365.828 258.301 365.637 258.672 c 365.344 259.25 364.832 259.535
 364.102 259.535 c 363.457 259.535 362.988 259.293 362.699 258.797 c 362.406
 258.309 362.258 257.715 362.258 257.016 c 362.258 256.348 362.406 255.793
 362.699 255.348 c 362.988 254.902 363.457 254.68 364.094 254.68 c 364.789
 254.68 365.27 254.945 365.531 255.473 c h
366.184 259.648 m 366.742 259.109 367.02 258.316 367.02 257.27 c 367.02
 256.258 366.773 255.422 366.281 254.762 c 365.789 254.102 365.027 253.77
 363.992 253.77 c 363.129 253.77 362.445 254.062 361.938 254.648 c 361.426
 255.23 361.176 256.016 361.176 257 c 361.176 258.055 361.441 258.895 361.977
 259.52 c 362.512 260.145 363.23 260.457 364.133 260.457 c 364.941 260.457
 365.625 260.188 366.184 259.648 c h
368.301 262.609 m 369.355 262.609 l 369.355 254 l 368.301 254 l h
368.301 262.609 m f
  Q
Q
  Q
Q
  Q
Q
q
0 307 562 -307 re W n
  q
q
0 307 562 -307 re W n
  q
1 g
427.5 299.5 m 443.5 299.5 l 443.5 279.5 l 427.5 279.5 l 427.5 283.5 l 423.5
 283.5 l 423.5 287.5 l 427.5 287.5 l 427.5 291.5 l 423.5 291.5 l 423.5 295.5
 l 427.5 295.5 l h
427.5 299.5 m f
0 g
1 w
0 J
0 j
[] 0.0 d
10 M 427.5 299.5 m 443.5 299.5 l 443.5 279.5 l 427.5 279.5 l 427.5 283.5 l 423.5
 283.5 l 423.5 287.5 l 427.5 287.5 l 427.5 291.5 l 423.5 291.5 l 423.5 295.5
 l 427.5 295.5 l h
427.5 299.5 m S
427.5 295.5 m 431.5 295.5 l 431.5 291.5 l 427.5 291.5 l 427.5 287.5 m 431.5
 287.5 l 431.5 283.5 l 427.5 283.5 l S
1 g
215.5 256.5 m 212.738 256.5 210.5 258.738 210.5 261.5 c 210.5 264.262 212.738
 266.5 215.5 266.5 c 218.262 266.5 220.5 264.262 220.5 261.5 c 220.5 258.738
 218.262 256.5 215.5 256.5 c h
215.5 256.5 m f
0 g
q 0 -1 -1 0 0 307 cm
50.5 -215.5 m 50.5 -212.738 48.262 -210.5 45.5 -210.5 c 42.738 -210.5 40.5
 -212.738 40.5 -215.5 c 40.5 -218.262 42.738 -220.5 45.5 -220.5 c 48.262
 -220.5 50.5 -218.262 50.5 -215.5 c h
50.5 -215.5 m S Q
q 0 -1 -1 0 0 307 cm
45.5 -210.5 m 45.5 -180.5 l S Q
q 0 1 1 0 0 307 cm
-45.5 223.5 m -45.5 270.5 l S Q
q 0 1 1 0 0 307 cm
-53.5 215.5 m -53.5 220.832 -50.832 223.5 -45.5 223.5 c -40.168 223.5 -37.5
 220.832 -37.5 215.5 c S Q
  Q
Q
  Q
Q
q
0 307 562 -307 re W n
  q
q
0 307 562 -307 re W n
  q
Q q
202 288 36 -14 re W n
q
202 288 36 -14 re W n
  q
0 g
203.945 286.609 m 205.121 286.609 l 205.121 283.051 l 209.598 283.051 l
 209.598 286.609 l 210.773 286.609 l 210.773 278 l 209.598 278 l 209.598
 282.027 l 205.121 282.027 l 205.121 278 l 203.945 278 l h
216.359 279.473 m 216.617 280.004 216.75 280.594 216.75 281.238 c 216.75
 281.828 216.656 282.301 216.469 282.672 c 216.168 283.25 215.656 283.535
 214.93 283.535 c 214.289 283.535 213.82 283.293 213.523 282.797 c 213.23
 282.309 213.086 281.715 213.086 281.016 c 213.086 280.348 213.23 279.793
 213.523 279.348 c 213.82 278.902 214.281 278.68 214.918 278.68 c 215.617
 278.68 216.098 278.945 216.359 279.473 c h
217.012 283.648 m 217.57 283.109 217.852 282.316 217.852 281.27 c 217.852
 280.258 217.602 279.422 217.113 278.762 c 216.617 278.102 215.855 277.77
 214.82 277.77 c 213.957 277.77 213.27 278.062 212.762 278.648 c 212.258
 279.23 212 280.016 212 281 c 212 282.055 212.27 282.895 212.805 283.52 
c 213.34 284.145 214.059 284.457 214.961 284.457 c 215.77 284.457 216.453
 284.188 217.012 283.648 c h
223.031 279.473 m 223.289 280.004 223.418 280.594 223.418 281.238 c 223.418
 281.828 223.328 282.301 223.137 282.672 c 222.844 283.25 222.332 283.535
 221.602 283.535 c 220.957 283.535 220.488 283.293 220.195 282.797 c 219.906
 282.309 219.758 281.715 219.758 281.016 c 219.758 280.348 219.906 279.793
 220.195 279.348 c 220.488 278.902 220.957 278.68 221.594 278.68 c 222.289
 278.68 222.77 278.945 223.031 279.473 c h
223.684 283.648 m 224.242 283.109 224.52 282.316 224.52 281.27 c 224.52
 280.258 224.273 279.422 223.781 278.762 c 223.289 278.102 222.527 277.77
 221.492 277.77 c 220.629 277.77 219.945 278.062 219.438 278.648 c 218.926
 279.23 218.676 280.016 218.676 281 c 218.676 282.055 218.941 282.895 219.477
 283.52 c 220.012 284.145 220.73 284.457 221.633 284.457 c 222.441 284.457
 223.125 284.188 223.684 283.648 c h
225.75 286.609 m 226.762 286.609 l 226.762 281.609 l 229.469 284.277 l 
230.82 284.277 l 228.414 281.926 l 230.953 278 l 229.605 278 l 227.648 281.164
 l 226.762 280.355 l 226.762 278 l 225.75 278 l h
232.398 279.969 m 232.43 279.617 232.52 279.348 232.664 279.16 c 232.93
 278.82 233.391 278.652 234.047 278.652 c 234.438 278.652 234.781 278.734
 235.078 278.906 c 235.375 279.074 235.523 279.34 235.523 279.691 c 235.523
 279.965 235.406 280.168 235.164 280.309 c 235.012 280.395 234.711 280.496
 234.262 280.609 c 233.426 280.816 l 232.891 280.953 232.496 281.098 232.242
 281.266 c 231.789 281.547 231.562 281.941 231.562 282.449 c 231.562 283.043
 231.777 283.52 232.203 283.891 c 232.633 284.254 233.207 284.438 233.93
 284.438 c 234.875 284.438 235.555 284.16 235.977 283.609 c 236.238 283.254
 236.363 282.875 236.355 282.469 c 235.359 282.469 l 235.34 282.707 235.258
 282.926 235.105 283.121 c 234.863 283.398 234.445 283.535 233.848 283.535
 c 233.449 283.535 233.148 283.461 232.941 283.309 c 232.738 283.156 232.633
 282.953 232.633 282.703 c 232.633 282.434 232.77 282.215 233.039 282.047
 c 233.195 281.949 233.426 281.863 233.73 281.793 c 234.426 281.621 l 235.188
 281.438 235.695 281.262 235.949 281.09 c 236.363 280.816 236.566 280.395
 236.566 279.816 c 236.566 279.258 236.355 278.777 235.93 278.371 c 235.508
 277.965 234.863 277.762 233.992 277.762 c 233.062 277.762 232.398 277.973
 232.012 278.395 c 231.621 278.82 231.414 279.344 231.387 279.969 c h
232.398 279.969 m f
  Q
Q
  Q
Q
  Q
Q
q
0 307 562 -307 re W n
  q
q
0 307 562 -307 re W n
  q
1 g
275.5 160.5 m 275.5 163.262 277.738 165.5 280.5 165.5 c 283.262 165.5 285.5
 163.262 285.5 160.5 c 285.5 157.738 283.262 155.5 280.5 155.5 c 277.738
 155.5 275.5 157.738 275.5 160.5 c h
275.5 160.5 m f
0 g
1 w
0 J
0 j
[] 0.0 d
10 M 275.5 160.5 m 275.5 163.262 277.738 165.5 280.5 165.5 c 283.262 165.5 285.5
 163.262 285.5 160.5 c 285.5 157.738 283.262 155.5 280.5 155.5 c 277.738
 155.5 275.5 157.738 275.5 160.5 c h
275.5 160.5 m S
280.5 165.5 m 280.5 215.5 l S
  Q
Q
  Q
Q
q
0 307 562 -307 re W n
  q
q
0 307 562 -307 re W n
  q
Q q
249 197 24 -14 re W n
q
249 197 24 -14 re W n
  q
0 g
256.73 195.363 m 257.586 194.914 258.113 194.125 258.301 193 c 257.148 
193 l 257.008 193.629 256.719 194.086 256.273 194.375 c 255.832 194.66 255.277
 194.805 254.605 194.805 c 253.809 194.805 253.137 194.508 252.594 193.906
 c 252.047 193.312 251.773 192.418 251.773 191.238 c 251.773 190.211 252
 189.379 252.449 188.738 c 252.898 188.094 253.633 187.773 254.645 187.773
 c 255.426 187.773 256.066 188 256.578 188.449 c 257.086 188.902 257.348
 189.633 257.359 190.637 c 254.664 190.637 l 254.664 191.605 l 258.445 191.605
 l 258.445 187 l 257.695 187 l 257.414 188.105 l 257.02 187.676 256.668 
187.375 256.363 187.207 c 255.852 186.918 255.199 186.77 254.414 186.77 
c 253.395 186.77 252.516 187.102 251.781 187.762 c 250.98 188.59 250.582
 189.727 250.582 191.172 c 250.582 192.613 250.969 193.762 251.75 194.613
 c 252.492 195.426 253.457 195.832 254.633 195.832 c 255.445 195.832 256.145
 195.676 256.73 195.363 c h
261.508 195.605 m 261.508 190.289 l 261.508 189.664 261.625 189.145 261.859
 188.73 c 262.207 188.105 262.793 187.793 263.617 187.793 c 264.605 187.793
 265.277 188.129 265.633 188.805 c 265.824 189.172 265.918 189.668 265.918
 190.289 c 265.918 195.605 l 267.102 195.605 l 267.102 190.773 l 267.102
 189.715 266.961 188.898 266.676 188.332 c 266.152 187.293 265.164 186.77
 263.711 186.77 c 262.258 186.77 261.27 187.293 260.75 188.332 c 260.469
 188.898 260.324 189.715 260.324 190.773 c 260.324 195.605 l h
269.164 195.605 m 270.34 195.605 l 270.34 187 l 269.164 187 l h
269.164 195.605 m f
  Q
Q
  Q
Q
  Q
Q
q
0 307 562 -307 re W n
  q
q
0 307 562 -307 re W n
  q
0 g
1 w
0 J
0 j
[] 0.0 d
10 M 281 151.5 m 281 45.5 l S
273 159.5 m 273 154.168 275.668 151.5 281 151.5 c 286.332 151.5 289 154.168
 289 159.5 c S
0.0509804 g
180.5 46.5 m 281.5 45.5 l S
1 g
380.5 91.5 180 -90 re f
0 g
380.5 91.5 180 -90 re S
  Q
Q
  Q
Q
q
0 307 562 -307 re W n
  q
q
0 307 562 -307 re W n
  q
Q q
381 91 179 -89 re W n
q
381 91 179 -89 re W n
  q
0 g
421.453 61.605 m 423.926 54.277 l 426.367 61.605 l 427.676 61.605 l 424.535
 53 l 423.301 53 l 420.164 61.605 l h
428.633 59.246 m 429.707 59.246 l 429.707 53 l 428.633 53 l h
428.633 61.605 m 429.707 61.605 l 429.707 60.414 l 428.633 60.414 l h
431.32 59.273 m 432.32 59.273 l 432.32 58.191 l 432.402 58.402 432.602 
58.66 432.926 58.961 c 433.242 59.266 433.613 59.418 434.031 59.418 c 434.051
 59.418 434.082 59.414 434.129 59.41 c 434.18 59.406 434.258 59.398 434.371
 59.387 c 434.371 58.273 l 434.309 58.285 434.25 58.293 434.199 58.297 c
 434.145 58.301 434.086 58.305 434.023 58.305 c 433.492 58.305 433.086 58.133
 432.801 57.789 c 432.516 57.449 432.371 57.055 432.371 56.609 c 432.371
 53 l 431.316 53 l 431.316 59.273 l h
435.484 61.027 m 436.551 61.027 l 436.551 59.273 l 437.551 59.273 l 437.551
 58.414 l 436.551 58.414 l 436.551 54.32 l 436.551 54.102 436.625 53.953
 436.773 53.879 c 436.855 53.836 436.992 53.812 437.184 53.812 c 437.234
 53.812 437.289 53.816 437.348 53.816 c 437.406 53.82 437.477 53.824 437.551
 53.832 c 437.551 53 l 437.43 52.965 437.305 52.938 437.176 52.922 c 437.043
 52.906 436.902 52.898 436.75 52.898 c 436.258 52.898 435.926 53.027 435.75
 53.277 c 435.574 53.531 435.484 53.855 435.484 54.258 c 435.484 58.414 
l 434.637 58.414 l 434.637 59.273 l 435.484 59.273 l h
439.656 59.273 m 439.656 55.109 l 439.656 54.789 439.707 54.527 439.809
 54.324 c 439.996 53.949 440.344 53.762 440.855 53.762 c 441.594 53.762 
442.094 54.09 442.355 54.746 c 442.5 55.098 442.574 55.582 442.574 56.195
 c 442.574 59.273 l 443.629 59.273 l 443.629 53 l 442.633 53 l 442.645 53.926
 l 442.508 53.688 442.336 53.488 442.133 53.324 c 441.73 52.992 441.242 
52.832 440.668 52.832 c 439.773 52.832 439.164 53.129 438.84 53.727 c 438.664
 54.047 438.578 54.477 438.578 55.012 c 438.578 59.273 l h
446.414 53.949 m 446.637 53.773 446.902 53.688 447.207 53.688 c 447.578
 53.688 447.938 53.77 448.285 53.945 c 448.871 54.23 449.164 54.695 449.164
 55.344 c 449.164 56.195 l 449.035 56.113 448.867 56.043 448.664 55.988 
c 448.461 55.934 448.262 55.895 448.07 55.871 c 447.43 55.789 l 447.047 
55.738 446.762 55.66 446.57 55.551 c 446.242 55.367 446.082 55.074 446.082
 54.672 c 446.082 54.367 446.195 54.125 446.414 53.949 c h
448.637 56.805 m 448.879 56.832 449.039 56.938 449.125 57.105 c 449.172
 57.199 449.191 57.336 449.191 57.512 c 449.191 57.871 449.066 58.133 448.809
 58.293 c 448.555 58.457 448.188 58.539 447.711 58.539 c 447.16 58.539 446.77
 58.387 446.539 58.094 c 446.41 57.93 446.324 57.684 446.285 57.359 c 445.301
 57.359 l 445.32 58.133 445.574 58.672 446.055 58.973 c 446.539 59.277 447.098
 59.43 447.734 59.43 c 448.473 59.43 449.07 59.289 449.531 59.008 c 449.988
 58.727 450.219 58.289 450.219 57.695 c 450.219 54.078 l 450.219 53.969 
450.242 53.883 450.285 53.812 c 450.332 53.75 450.426 53.715 450.57 53.715
 c 450.617 53.715 450.668 53.719 450.73 53.723 c 450.789 53.73 450.852 53.738
 450.918 53.75 c 450.918 52.973 l 450.754 52.926 450.629 52.895 450.543 
52.883 c 450.457 52.871 450.34 52.867 450.191 52.867 c 449.828 52.867 449.562
 52.996 449.398 53.254 c 449.312 53.391 449.254 53.582 449.219 53.832 c 
449.004 53.551 448.695 53.309 448.293 53.102 c 447.891 52.895 447.445 52.789
 446.961 52.789 c 446.379 52.789 445.902 52.965 445.535 53.32 c 445.164 
53.672 444.98 54.117 444.98 54.648 c 444.98 55.23 445.164 55.68 445.527 
56 c 445.891 56.32 446.367 56.52 446.957 56.594 c h
451.977 61.605 m 453.031 61.605 l 453.031 53 l 451.977 53 l h
457.93 59.273 m 458.973 59.273 l 458.973 58.387 l 459.223 58.695 459.449
 58.918 459.652 59.059 c 460 59.297 460.395 59.418 460.836 59.418 c 461.336
 59.418 461.738 59.293 462.043 59.047 c 462.215 58.906 462.371 58.699 462.512
 58.426 c 462.746 58.762 463.02 59.012 463.336 59.172 c 463.656 59.336 464.012
 59.418 464.406 59.418 c 465.25 59.418 465.824 59.113 466.125 58.5 c 466.289
 58.176 466.375 57.73 466.375 57.176 c 466.375 53 l 465.277 53 l 465.277
 57.359 l 465.277 57.777 465.172 58.062 464.965 58.219 c 464.754 58.375 
464.5 58.457 464.199 58.457 c 463.785 58.457 463.43 58.316 463.129 58.039
 c 462.832 57.762 462.68 57.301 462.68 56.648 c 462.68 53 l 461.609 53 l
 461.609 57.094 l 461.609 57.523 461.559 57.832 461.457 58.027 c 461.297
 58.32 461 58.469 460.562 58.469 c 460.164 58.469 459.801 58.312 459.473
 58.004 c 459.148 57.695 458.984 57.137 458.984 56.328 c 458.984 53 l 457.93
 53 l h
469.055 53.949 m 469.281 53.773 469.543 53.688 469.848 53.688 c 470.219
 53.688 470.578 53.77 470.926 53.945 c 471.512 54.23 471.805 54.695 471.805
 55.344 c 471.805 56.195 l 471.676 56.113 471.512 56.043 471.305 55.988 
c 471.102 55.934 470.906 55.895 470.707 55.871 c 470.07 55.789 l 469.688
 55.738 469.398 55.66 469.207 55.551 c 468.887 55.367 468.723 55.074 468.723
 54.672 c 468.723 54.367 468.832 54.125 469.055 53.949 c h
471.277 56.805 m 471.52 56.832 471.68 56.938 471.762 57.105 c 471.812 57.199
 471.832 57.336 471.832 57.512 c 471.832 57.871 471.707 58.133 471.449 58.293
 c 471.195 58.457 470.828 58.539 470.352 58.539 c 469.801 58.539 469.41 
58.387 469.18 58.094 c 469.051 57.93 468.965 57.684 468.926 57.359 c 467.941
 57.359 l 467.961 58.133 468.215 58.672 468.695 58.973 c 469.18 59.277 469.738
 59.43 470.375 59.43 c 471.113 59.43 471.711 59.289 472.172 59.008 c 472.629
 58.727 472.859 58.289 472.859 57.695 c 472.859 54.078 l 472.859 53.969 
472.883 53.883 472.926 53.812 c 472.973 53.75 473.066 53.715 473.211 53.715
 c 473.258 53.715 473.309 53.719 473.367 53.723 c 473.43 53.73 473.488 53.738
 473.555 53.75 c 473.555 52.973 l 473.395 52.926 473.27 52.895 473.18 52.883
 c 473.098 52.871 472.977 52.867 472.832 52.867 c 472.469 52.867 472.203
 52.996 472.039 53.254 c 471.953 53.391 471.895 53.582 471.855 53.832 c 
471.645 53.551 471.332 53.309 470.93 53.102 c 470.531 52.895 470.086 52.789
 469.602 52.789 c 469.02 52.789 468.543 52.965 468.176 53.32 c 467.805 53.672
 467.621 54.117 467.621 54.648 c 467.621 55.23 467.801 55.68 468.164 56 
c 468.531 56.32 469.008 56.52 469.594 56.594 c h
478.73 58.941 m 479.176 58.598 479.441 58.008 479.531 57.168 c 478.508 
57.168 l 478.445 57.555 478.301 57.875 478.078 58.129 c 477.855 58.387 477.5
 58.512 477.008 58.512 c 476.332 58.512 475.852 58.188 475.562 57.531 c 
475.375 57.105 475.281 56.578 475.281 55.953 c 475.281 55.324 475.414 54.793
 475.68 54.367 c 475.949 53.938 476.363 53.719 476.938 53.719 c 477.375 
53.719 477.719 53.855 477.977 54.121 c 478.23 54.391 478.406 54.758 478.508
 55.219 c 479.531 55.219 l 479.414 54.387 479.121 53.781 478.652 53.395 
c 478.184 53.012 477.582 52.82 476.852 52.82 c 476.031 52.82 475.379 53.117
 474.891 53.719 c 474.402 54.316 474.156 55.066 474.156 55.965 c 474.156
 57.066 474.426 57.926 474.961 58.539 c 475.496 59.148 476.176 59.457 477.008
 59.457 c 477.711 59.457 478.289 59.285 478.73 58.941 c h
480.586 61.637 m 481.641 61.637 l 481.641 58.426 l 481.891 58.742 482.113
 58.965 482.312 59.094 c 482.656 59.316 483.078 59.43 483.586 59.43 c 484.496
 59.43 485.113 59.109 485.438 58.473 c 485.613 58.125 485.699 57.645 485.699
 57.023 c 485.699 53 l 484.617 53 l 484.617 56.957 l 484.617 57.418 484.559
 57.754 484.441 57.969 c 484.25 58.312 483.891 58.484 483.363 58.484 c 482.926
 58.484 482.531 58.336 482.176 58.031 c 481.82 57.73 481.641 57.164 481.641
 56.328 c 481.641 53 l 480.586 53 l h
487.258 59.246 m 488.332 59.246 l 488.332 53 l 487.258 53 l h
487.258 61.605 m 488.332 61.605 l 488.332 60.414 l 487.258 60.414 l h
489.914 59.273 m 490.914 59.273 l 490.914 58.387 l 491.211 58.75 491.527
 59.016 491.859 59.176 c 492.191 59.336 492.562 59.418 492.969 59.418 c 
493.855 59.418 494.457 59.105 494.77 58.484 c 494.945 58.145 495.031 57.656
 495.031 57.023 c 495.031 53 l 493.957 53 l 493.957 56.957 l 493.957 57.336
 493.902 57.648 493.789 57.883 c 493.602 58.273 493.262 58.469 492.77 58.469
 c 492.52 58.469 492.312 58.441 492.152 58.391 c 491.863 58.305 491.609 
58.133 491.391 57.875 c 491.215 57.668 491.102 57.453 491.047 57.234 c 490.996
 57.012 490.969 56.695 490.969 56.285 c 490.969 53 l 489.914 53 l h
500.492 59.102 m 500.914 58.895 501.23 58.625 501.449 58.293 c 501.66 57.977
 501.801 57.605 501.871 57.184 c 501.934 56.895 501.965 56.434 501.965 55.801
 c 497.363 55.801 l 497.383 55.164 497.535 54.652 497.816 54.27 c 498.098
 53.883 498.531 53.691 499.121 53.691 c 499.672 53.691 500.113 53.875 500.441
 54.238 c 500.629 54.449 500.762 54.691 500.84 54.969 c 501.875 54.969 l
 501.848 54.738 501.758 54.48 501.605 54.199 c 501.449 53.914 501.277 53.684
 501.086 53.504 c 500.766 53.191 500.367 52.98 499.895 52.871 c 499.641 
52.809 499.355 52.777 499.035 52.777 c 498.254 52.777 497.59 53.062 497.047
 53.629 c 496.504 54.199 496.234 54.996 496.234 56.02 c 496.234 57.027 496.508
 57.844 497.055 58.473 c 497.602 59.102 498.316 59.418 499.199 59.418 c 
499.645 59.418 500.074 59.312 500.492 59.102 c h
500.883 56.637 m 500.836 57.094 500.738 57.461 500.582 57.734 c 500.293
 58.242 499.812 58.496 499.137 58.496 c 498.648 58.496 498.242 58.32 497.914
 57.973 c 497.586 57.621 497.414 57.176 497.395 56.637 c h
506.613 61.605 m 507.668 61.605 l 507.668 53 l 506.613 53 l h
509.242 59.246 m 510.312 59.246 l 510.312 53 l 509.242 53 l h
509.242 61.605 m 510.312 61.605 l 510.312 60.414 l 509.242 60.414 l h
512.391 61.191 m 512.637 61.551 513.113 61.73 513.812 61.73 c 513.879 61.73
 513.949 61.727 514.02 61.723 c 514.09 61.719 514.168 61.715 514.262 61.707
 c 514.262 60.746 l 514.148 60.754 514.07 60.758 514.023 60.762 c 513.973
 60.762 513.93 60.762 513.887 60.762 c 513.562 60.762 513.375 60.68 513.312
 60.516 c 513.25 60.348 513.219 59.926 513.219 59.246 c 514.262 59.246 l
 514.262 58.414 l 513.207 58.414 l 513.207 53 l 512.164 53 l 512.164 58.414
 l 511.289 58.414 l 511.289 59.246 l 512.164 59.246 l 512.164 60.23 l 512.18
 60.668 512.254 60.988 512.391 61.191 c h
519.137 59.102 m 519.551 58.895 519.871 58.625 520.09 58.293 c 520.301 
57.977 520.441 57.605 520.512 57.184 c 520.574 56.895 520.605 56.434 520.605
 55.801 c 516.004 55.801 l 516.023 55.164 516.176 54.652 516.457 54.27 c
 516.738 53.883 517.172 53.691 517.762 53.691 c 518.312 53.691 518.754 53.875
 519.082 54.238 c 519.27 54.449 519.402 54.691 519.48 54.969 c 520.516 54.969
 l 520.488 54.738 520.398 54.48 520.246 54.199 c 520.09 53.914 519.918 53.684
 519.727 53.504 c 519.406 53.191 519.008 52.98 518.535 52.871 c 518.281 
52.809 517.996 52.777 517.676 52.777 c 516.895 52.777 516.23 53.062 515.688
 53.629 c 515.145 54.199 514.875 54.996 514.875 56.02 c 514.875 57.027 515.148
 57.844 515.695 58.473 c 516.242 59.102 516.957 59.418 517.84 59.418 c 518.285
 59.418 518.715 59.312 519.133 59.102 c h
519.52 56.637 m 519.477 57.094 519.379 57.461 519.223 57.734 c 518.934 
58.242 518.449 58.496 517.773 58.496 c 517.293 58.496 516.887 58.32 516.555
 57.973 c 516.23 57.621 516.055 57.176 516.035 56.637 c h
519.52 56.637 m f
436.418 44.941 m 436.863 44.598 437.129 44.008 437.219 43.168 c 436.195
 43.168 l 436.133 43.551 435.988 43.875 435.766 44.129 c 435.543 44.387 
435.188 44.512 434.695 44.512 c 434.02 44.512 433.539 44.188 433.25 43.531
 c 433.062 43.105 432.969 42.578 432.969 41.953 c 432.969 41.324 433.102
 40.793 433.367 40.363 c 433.637 39.938 434.051 39.719 434.625 39.719 c 
435.062 39.719 435.406 39.855 435.664 40.121 c 435.918 40.391 436.094 40.758
 436.195 41.219 c 437.219 41.219 l 437.102 40.387 436.809 39.781 436.34 
39.395 c 435.871 39.012 435.27 38.82 434.539 38.82 c 433.719 38.82 433.066
 39.117 432.578 39.719 c 432.09 40.316 431.844 41.066 431.844 41.965 c 431.844
 43.066 432.113 43.926 432.648 44.539 c 433.184 45.148 433.863 45.457 434.695
 45.457 c 435.398 45.457 435.977 45.285 436.418 44.941 c h
442.195 45.273 m 443.359 45.273 l 443.211 44.875 442.883 43.957 442.367
 42.523 c 441.988 41.445 441.664 40.562 441.406 39.887 c 440.801 38.281 
440.367 37.305 440.117 36.957 c 439.867 36.605 439.438 36.426 438.832 36.426
 c 438.68 36.426 438.566 36.434 438.488 36.445 c 438.406 36.457 438.309 
36.48 438.191 36.512 c 438.191 37.473 l 438.375 37.422 438.508 37.391 438.59
 37.379 c 438.672 37.367 438.742 37.359 438.805 37.359 c 439 37.359 439.145
 37.391 439.238 37.457 c 439.328 37.52 439.406 37.602 439.469 37.695 c 439.488
 37.727 439.559 37.887 439.68 38.176 c 439.801 38.465 439.887 38.68 439.945
 38.82 c 437.625 45.277 l 438.82 45.277 l 440.5 40.168 l 442.195 45.277 
l h
448.418 44.941 m 448.863 44.598 449.129 44.008 449.219 43.168 c 448.195
 43.168 l 448.133 43.551 447.988 43.875 447.766 44.129 c 447.543 44.387 
447.188 44.512 446.695 44.512 c 446.02 44.512 445.539 44.188 445.25 43.531
 c 445.062 43.105 444.969 42.578 444.969 41.953 c 444.969 41.324 445.102
 40.793 445.367 40.363 c 445.637 39.938 446.051 39.719 446.625 39.719 c 
447.062 39.719 447.406 39.855 447.664 40.121 c 447.918 40.391 448.094 40.758
 448.195 41.219 c 449.219 41.219 l 449.102 40.387 448.809 39.781 448.34 
39.395 c 447.871 39.012 447.27 38.82 446.539 38.82 c 445.719 38.82 445.066
 39.117 444.578 39.719 c 444.09 40.316 443.844 41.066 443.844 41.965 c 443.844
 43.066 444.113 43.926 444.648 44.539 c 445.184 45.148 445.863 45.457 446.695
 45.457 c 447.398 45.457 447.977 45.285 448.418 44.941 c h
450.301 47.605 m 451.355 47.605 l 451.355 39 l 450.301 39 l h
456.836 45.102 m 457.258 44.895 457.574 44.625 457.793 44.293 c 458.004
 43.977 458.145 43.605 458.215 43.184 c 458.277 42.895 458.309 42.434 458.309
 41.801 c 453.707 41.801 l 453.727 41.164 453.879 40.652 454.16 40.27 c 
454.441 39.883 454.875 39.691 455.465 39.691 c 456.016 39.691 456.457 39.875
 456.785 40.238 c 456.973 40.449 457.105 40.691 457.184 40.969 c 458.219
 40.969 l 458.191 40.738 458.102 40.48 457.949 40.199 c 457.793 39.914 457.621
 39.684 457.43 39.504 c 457.109 39.191 456.711 38.98 456.238 38.871 c 455.984
 38.809 455.699 38.777 455.379 38.777 c 454.598 38.777 453.934 39.062 453.391
 39.629 c 452.848 40.199 452.578 40.996 452.578 42.02 c 452.578 43.027 452.852
 43.844 453.398 44.473 c 453.945 45.102 454.66 45.418 455.543 45.418 c 455.988
 45.418 456.418 45.312 456.836 45.102 c h
457.227 42.637 m 457.18 43.094 457.082 43.461 456.926 43.734 c 456.637 
44.242 456.156 44.496 455.477 44.496 c 454.992 44.496 454.586 44.32 454.262
 43.973 c 453.93 43.621 453.758 43.176 453.738 42.637 c h
462.93 45.273 m 463.973 45.273 l 463.973 44.387 l 464.223 44.695 464.449
 44.918 464.652 45.059 c 465 45.297 465.395 45.418 465.836 45.418 c 466.336
 45.418 466.738 45.293 467.043 45.047 c 467.215 44.906 467.371 44.699 467.512
 44.426 c 467.746 44.762 468.02 45.012 468.336 45.172 c 468.656 45.336 469.012
 45.418 469.406 45.418 c 470.25 45.418 470.824 45.113 471.125 44.5 c 471.289
 44.176 471.375 43.73 471.375 43.176 c 471.375 39 l 470.277 39 l 470.277
 43.359 l 470.277 43.777 470.172 44.062 469.965 44.219 c 469.754 44.375 
469.5 44.457 469.199 44.457 c 468.785 44.457 468.43 44.316 468.129 44.039
 c 467.832 43.762 467.68 43.301 467.68 42.648 c 467.68 39 l 466.609 39 l
 466.609 43.094 l 466.609 43.523 466.559 43.832 466.457 44.027 c 466.297
 44.32 466 44.469 465.562 44.469 c 465.164 44.469 464.801 44.312 464.473
 44.004 c 464.148 43.695 463.984 43.137 463.984 42.328 c 463.984 39 l 462.93
 39 l h
474.055 39.949 m 474.281 39.773 474.543 39.688 474.848 39.688 c 475.219
 39.688 475.578 39.77 475.926 39.945 c 476.512 40.23 476.805 40.695 476.805
 41.344 c 476.805 42.195 l 476.676 42.113 476.512 42.043 476.305 41.988 
c 476.102 41.934 475.906 41.895 475.707 41.871 c 475.07 41.789 l 474.688
 41.738 474.398 41.66 474.207 41.551 c 473.887 41.367 473.723 41.074 473.723
 40.672 c 473.723 40.367 473.832 40.125 474.055 39.949 c h
476.277 42.801 m 476.52 42.836 476.68 42.938 476.762 43.105 c 476.812 43.199
 476.832 43.336 476.832 43.512 c 476.832 43.871 476.707 44.133 476.449 44.293
 c 476.195 44.457 475.828 44.539 475.352 44.539 c 474.801 44.539 474.41 
44.387 474.18 44.094 c 474.051 43.926 473.965 43.684 473.926 43.359 c 472.941
 43.359 l 472.961 44.133 473.215 44.672 473.695 44.973 c 474.18 45.277 474.738
 45.426 475.375 45.426 c 476.113 45.426 476.711 45.289 477.172 45.008 c 
477.629 44.727 477.859 44.289 477.859 43.695 c 477.859 40.078 l 477.859 
39.969 477.883 39.883 477.926 39.812 c 477.973 39.75 478.066 39.715 478.211
 39.715 c 478.258 39.715 478.309 39.719 478.367 39.723 c 478.43 39.73 478.488
 39.738 478.555 39.75 c 478.555 38.973 l 478.395 38.926 478.27 38.895 478.18
 38.883 c 478.098 38.871 477.977 38.867 477.832 38.867 c 477.469 38.867 
477.203 38.996 477.039 39.254 c 476.953 39.391 476.895 39.582 476.855 39.832
 c 476.645 39.551 476.332 39.309 475.93 39.102 c 475.531 38.895 475.086 
38.789 474.602 38.789 c 474.02 38.789 473.543 38.965 473.176 39.32 c 472.805
 39.672 472.621 40.117 472.621 40.648 c 472.621 41.23 472.801 41.68 473.164
 42 c 473.531 42.32 474.008 42.52 474.594 42.594 c 476.277 42.805 l h
479.586 45.273 m 480.586 45.273 l 480.586 44.387 l 480.887 44.75 481.199
 45.016 481.531 45.176 c 481.863 45.336 482.23 45.418 482.637 45.418 c 483.531
 45.418 484.133 45.105 484.445 44.484 c 484.613 44.145 484.699 43.656 484.699
 43.023 c 484.699 39 l 483.629 39 l 483.629 42.957 l 483.629 43.336 483.574
 43.648 483.457 43.883 c 483.27 44.273 482.93 44.469 482.438 44.469 c 482.188
 44.469 481.984 44.441 481.824 44.391 c 481.535 44.305 481.281 44.133 481.062
 43.875 c 480.887 43.668 480.773 43.453 480.719 43.234 c 480.668 43.012 
480.641 42.695 480.641 42.285 c 480.641 39 l 479.586 39 l h
487.398 39.949 m 487.625 39.773 487.887 39.688 488.191 39.688 c 488.562
 39.688 488.922 39.77 489.27 39.945 c 489.855 40.23 490.148 40.695 490.148
 41.344 c 490.148 42.195 l 490.02 42.113 489.852 42.043 489.648 41.988 c
 489.449 41.934 489.25 41.895 489.051 41.871 c 488.414 41.789 l 488.031 
41.738 487.742 41.66 487.551 41.551 c 487.227 41.367 487.066 41.074 487.066
 40.672 c 487.066 40.367 487.176 40.125 487.398 39.949 c h
489.621 42.801 m 489.863 42.836 490.023 42.938 490.105 43.105 c 490.156
 43.199 490.176 43.336 490.176 43.512 c 490.176 43.871 490.051 44.133 489.793
 44.293 c 489.539 44.457 489.172 44.539 488.695 44.539 c 488.145 44.539 
487.754 44.387 487.523 44.094 c 487.395 43.926 487.309 43.684 487.27 43.359
 c 486.285 43.359 l 486.305 44.133 486.559 44.672 487.039 44.973 c 487.523
 45.277 488.082 45.426 488.719 45.426 c 489.457 45.426 490.055 45.289 490.516
 45.008 c 490.973 44.727 491.203 44.289 491.203 43.695 c 491.203 40.078 
l 491.203 39.969 491.227 39.883 491.27 39.812 c 491.316 39.75 491.41 39.715
 491.555 39.715 c 491.602 39.715 491.652 39.719 491.711 39.723 c 491.773
 39.73 491.832 39.738 491.898 39.75 c 491.898 38.973 l 491.738 38.926 491.613
 38.895 491.523 38.883 c 491.441 38.871 491.324 38.867 491.176 38.867 c 
490.812 38.867 490.547 38.996 490.383 39.254 c 490.297 39.391 490.238 39.582
 490.199 39.832 c 489.988 39.551 489.676 39.309 489.273 39.102 c 488.875
 38.895 488.43 38.789 487.945 38.789 c 487.363 38.789 486.887 38.965 486.52
 39.32 c 486.148 39.672 485.965 40.117 485.965 40.648 c 485.965 41.23 486.145
 41.68 486.512 42 c 486.875 42.32 487.352 42.52 487.938 42.594 c 489.621
 42.805 l h
496.434 45.023 m 496.633 44.887 496.836 44.688 497.043 44.426 c 497.043
 45.219 l 498.016 45.219 l 498.016 39.512 l 498.016 38.711 497.898 38.086
 497.664 37.625 c 497.227 36.773 496.398 36.344 495.188 36.344 c 494.512
 36.344 493.941 36.496 493.48 36.801 c 493.02 37.102 492.762 37.574 492.707
 38.219 c 493.781 38.219 l 493.832 37.938 493.93 37.723 494.082 37.57 c 
494.324 37.336 494.699 37.219 495.207 37.219 c 496.02 37.219 496.547 37.504
 496.797 38.074 c 496.945 38.41 497.012 39.012 497 39.875 c 496.789 39.551
 496.539 39.312 496.238 39.156 c 495.945 39 495.551 38.926 495.062 38.926
 c 494.383 38.926 493.789 39.164 493.277 39.648 c 492.77 40.129 492.512 
40.926 492.512 42.043 c 492.512 43.094 492.77 43.914 493.285 44.5 c 493.797
 45.094 494.418 45.387 495.145 45.387 c 495.637 45.387 496.066 45.266 496.434
 45.023 c h
496.562 43.895 m 496.242 44.27 495.832 44.457 495.336 44.457 c 494.594 
44.457 494.086 44.105 493.812 43.414 c 493.668 43.043 493.598 42.555 493.598
 41.953 c 493.598 41.246 493.742 40.707 494.027 40.34 c 494.316 39.969 494.699
 39.785 495.188 39.785 c 495.945 39.785 496.477 40.125 496.785 40.812 c 
496.957 41.199 497.043 41.648 497.043 42.164 c 497.043 42.941 496.883 43.52
 496.562 43.895 c h
503.512 45.102 m 503.926 44.895 504.246 44.625 504.465 44.293 c 504.676
 43.977 504.816 43.605 504.887 43.184 c 504.949 42.895 504.98 42.434 504.98
 41.801 c 500.379 41.801 l 500.398 41.164 500.551 40.652 500.832 40.27 c
 501.113 39.883 501.547 39.691 502.137 39.691 c 502.688 39.691 503.129 39.875
 503.457 40.238 c 503.645 40.449 503.777 40.691 503.855 40.969 c 504.891
 40.969 l 504.863 40.738 504.773 40.48 504.621 40.199 c 504.465 39.914 504.293
 39.684 504.102 39.504 c 503.781 39.191 503.383 38.98 502.91 38.871 c 502.656
 38.809 502.371 38.777 502.051 38.777 c 501.27 38.777 500.605 39.062 500.062
 39.629 c 499.52 40.199 499.25 40.996 499.25 42.02 c 499.25 43.027 499.523
 43.844 500.07 44.473 c 500.617 45.102 501.332 45.418 502.215 45.418 c 502.66
 45.418 503.09 45.312 503.508 45.102 c h
503.895 42.637 m 503.852 43.094 503.754 43.461 503.598 43.734 c 503.309
 44.242 502.824 44.496 502.148 44.496 c 501.664 44.496 501.262 44.32 500.93
 43.973 c 500.602 43.621 500.43 43.176 500.41 42.637 c h
506.301 45.273 m 507.305 45.273 l 507.305 44.191 l 507.387 44.402 507.586
 44.66 507.906 44.961 c 508.227 45.266 508.598 45.418 509.016 45.418 c 509.035
 45.418 509.066 45.414 509.113 45.41 c 509.164 45.406 509.242 45.398 509.355
 45.387 c 509.355 44.273 l 509.293 44.285 509.234 44.293 509.184 44.297 
c 509.129 44.301 509.07 44.305 509.008 44.305 c 508.477 44.305 508.07 44.133
 507.785 43.789 c 507.5 43.449 507.355 43.055 507.355 42.609 c 507.355 39
 l 506.301 39 l 506.301 45.277 l h
506.301 45.273 m f
  Q
Q
  Q
Q
  Q
Q
q
0 307 562 -307 re W n
  q
q
0 307 562 -307 re W n
  q
1 g
537.5 84.5 m 553.5 84.5 l 553.5 64.5 l 537.5 64.5 l 537.5 68.5 l 533.5 
68.5 l 533.5 72.5 l 537.5 72.5 l 537.5 76.5 l 533.5 76.5 l 533.5 80.5 l 
537.5 80.5 l h
537.5 84.5 m f
0 g
1 w
0 J
0 j
[] 0.0 d
10 M 537.5 84.5 m 553.5 84.5 l 553.5 64.5 l 537.5 64.5 l 537.5 68.5 l 533.5 
68.5 l 533.5 72.5 l 537.5 72.5 l 537.5 76.5 l 533.5 76.5 l 533.5 80.5 l 
537.5 80.5 l h
537.5 84.5 m S
537.5 80.5 m 541.5 80.5 l 541.5 76.5 l 537.5 76.5 l 537.5 72.5 m 541.5 
72.5 l 541.5 68.5 l 537.5 68.5 l S
1 g
412.5 147.5 m 412.5 144.738 410.262 142.5 407.5 142.5 c 404.738 142.5 402.5
 144.738 402.5 147.5 c 402.5 150.262 404.738 152.5 407.5 152.5 c 410.262
 152.5 412.5 150.262 412.5 147.5 c h
412.5 147.5 m f
0 g
412.5 147.5 m 412.5 144.738 410.262 142.5 407.5 142.5 c 404.738 142.5 402.5
 144.738 402.5 147.5 c 402.5 150.262 404.738 152.5 407.5 152.5 c 410.262
 152.5 412.5 150.262 412.5 147.5 c h
412.5 147.5 m S
407.5 142.5 m 407.5 90.5 l S
  Q
Q
  Q
Q
q
0 307 562 -307 re W n
  q
q
0 307 562 -307 re W n
  q
Q q
351 125 49 -14 re W n
q
351 125 49 -14 re W n
  q
0 g
356.914 119.664 m 357.461 119.664 357.895 119.773 358.215 119.992 c 358.531
 120.211 358.691 120.605 358.691 121.176 c 358.691 121.789 358.469 122.207
 358.023 122.43 c 357.785 122.547 357.469 122.605 357.07 122.605 c 354.219
 122.605 l 354.219 119.664 l h
353.055 123.605 m 357.039 123.605 l 357.695 123.605 358.238 123.512 358.664
 123.32 c 359.469 122.953 359.875 122.273 359.875 121.289 c 359.875 120.773
 359.77 120.352 359.555 120.023 c 359.344 119.695 359.043 119.43 358.664
 119.23 c 359 119.094 359.25 118.914 359.422 118.691 c 359.59 118.469 359.688
 118.105 359.707 117.605 c 359.746 116.453 l 359.758 116.125 359.785 115.883
 359.828 115.719 c 359.898 115.449 360.023 115.273 360.203 115.195 c 360.203
 115 l 358.773 115 l 358.734 115.074 358.703 115.168 358.68 115.289 c 358.656
 115.406 358.637 115.633 358.621 115.969 c 358.551 117.402 l 358.523 117.965
 358.316 118.344 357.926 118.531 c 357.703 118.637 357.352 118.691 356.875
 118.691 c 354.223 118.691 l 354.223 115 l 353.055 115 l h
365.336 121.102 m 365.758 120.895 366.074 120.625 366.293 120.293 c 366.504
 119.977 366.645 119.605 366.715 119.184 c 366.777 118.895 366.809 118.434
 366.809 117.801 c 362.207 117.801 l 362.227 117.164 362.379 116.652 362.66
 116.27 c 362.941 115.883 363.375 115.691 363.965 115.691 c 364.516 115.691
 364.957 115.875 365.285 116.238 c 365.473 116.449 365.605 116.691 365.684
 116.969 c 366.719 116.969 l 366.691 116.738 366.602 116.48 366.449 116.199
 c 366.293 115.914 366.121 115.684 365.93 115.504 c 365.609 115.191 365.211
 114.98 364.738 114.871 c 364.484 114.809 364.199 114.777 363.879 114.777
 c 363.098 114.777 362.434 115.062 361.891 115.629 c 361.348 116.199 361.078
 116.996 361.078 118.02 c 361.078 119.027 361.352 119.844 361.898 120.473
 c 362.445 121.102 363.16 121.418 364.043 121.418 c 364.488 121.418 364.918
 121.312 365.336 121.102 c h
365.727 118.637 m 365.68 119.094 365.582 119.461 365.426 119.734 c 365.137
 120.242 364.656 120.496 363.977 120.496 c 363.492 120.496 363.086 120.32
 362.762 119.973 c 362.43 119.621 362.258 119.176 362.238 118.637 c h
368.727 116.969 m 368.762 116.617 368.848 116.348 368.992 116.16 c 369.258
 115.82 369.719 115.648 370.375 115.648 c 370.766 115.648 371.109 115.734
 371.406 115.906 c 371.703 116.074 371.852 116.336 371.852 116.695 c 371.852
 116.961 371.73 117.168 371.492 117.309 c 371.344 117.395 371.039 117.492
 370.594 117.605 c 369.754 117.82 l 369.219 117.949 368.824 118.102 368.57
 118.262 c 368.117 118.551 367.891 118.945 367.891 119.449 c 367.891 120.043
 368.105 120.523 368.531 120.887 c 368.961 121.258 369.535 121.438 370.258
 121.438 c 371.203 121.438 371.887 121.164 372.301 120.605 c 372.562 120.258
 372.691 119.875 372.684 119.469 c 371.688 119.469 l 371.668 119.711 371.582
 119.926 371.438 120.121 c 371.195 120.398 370.773 120.539 370.176 120.539
 c 369.777 120.539 369.477 120.461 369.27 120.309 c 369.066 120.156 368.961
 119.957 368.961 119.707 c 368.961 119.43 369.098 119.211 369.367 119.051
 c 369.523 118.949 369.754 118.867 370.059 118.793 c 370.758 118.621 l 371.512
 118.438 372.02 118.262 372.281 118.086 c 372.688 117.82 372.895 117.395
 372.895 116.816 c 372.895 116.258 372.684 115.773 372.258 115.367 c 371.836
 114.961 371.188 114.762 370.324 114.762 c 369.387 114.762 368.727 114.973
 368.34 115.395 c 367.949 115.82 367.742 116.344 367.715 116.969 c h
374.312 123.027 m 375.379 123.027 l 375.379 121.273 l 376.383 121.273 l
 376.383 120.414 l 375.379 120.414 l 375.379 116.32 l 375.379 116.102 375.453
 115.953 375.602 115.879 c 375.684 115.836 375.82 115.812 376.012 115.812
 c 376.062 115.812 376.117 115.816 376.176 115.816 c 376.234 115.82 376.301
 115.824 376.383 115.832 c 376.383 115 l 376.262 114.965 376.133 114.938
 376.004 114.922 c 375.871 114.906 375.73 114.898 375.578 114.898 c 375.086
 114.898 374.75 115.027 374.574 115.277 c 374.398 115.531 374.312 115.855
 374.312 116.258 c 374.312 120.414 l 373.461 120.414 l 373.461 121.273 l
 374.312 121.273 l h
385.316 118.527 m 384.012 122.332 l 382.621 118.527 l h
383.398 123.605 m 384.719 123.605 l 387.844 115 l 386.562 115 l 385.691
 117.578 l 382.289 117.578 l 381.355 115 l 380.16 115 l h
389.012 123.605 m 392.883 123.605 l 393.648 123.605 394.266 123.391 394.734
 122.961 c 395.203 122.527 395.438 121.922 395.438 121.141 c 395.438 120.469
 395.227 119.883 394.812 119.387 c 394.395 118.887 393.75 118.637 392.883
 118.637 c 390.176 118.637 l 390.176 115 l 389.012 115 l h
393.555 122.426 m 393.301 122.543 392.945 122.605 392.496 122.605 c 390.176
 122.605 l 390.176 119.625 l 392.496 119.625 l 393.02 119.625 393.445 119.734
 393.77 119.957 c 394.098 120.18 394.262 120.574 394.262 121.137 c 394.262
 121.77 394.023 122.199 393.555 122.426 c h
397.164 123.605 m 398.34 123.605 l 398.34 115 l 397.164 115 l h
397.164 123.605 m f
  Q
Q
  Q
Q
  Q
Q
q
0 307 562 -307 re W n
  q
q
0 307 562 -307 re W n
  q
1 g
446.5 146.5 m 446.5 143.738 444.262 141.5 441.5 141.5 c 438.738 141.5 436.5
 143.738 436.5 146.5 c 436.5 149.262 438.738 151.5 441.5 151.5 c 444.262
 151.5 446.5 149.262 446.5 146.5 c h
446.5 146.5 m f
0 g
1 w
0 J
0 j
[] 0.0 d
10 M 446.5 146.5 m 446.5 143.738 444.262 141.5 441.5 141.5 c 438.738 141.5 436.5
 143.738 436.5 146.5 c 436.5 149.262 438.738 151.5 441.5 151.5 c 444.262
 151.5 446.5 149.262 446.5 146.5 c h
446.5 146.5 m S
441 142 m 441 91 l S
  Q
Q
  Q
Q
q
0 307 562 -307 re W n
  q
q
0 307 562 -307 re W n
  q
Q q
448 130 24 -14 re W n
q
448 130 24 -14 re W n
  q
0 g
455.73 128.363 m 456.586 127.914 457.113 127.125 457.301 126 c 456.148 
126 l 456.008 126.629 455.719 127.086 455.273 127.375 c 454.832 127.66 454.277
 127.805 453.605 127.805 c 452.809 127.805 452.137 127.508 451.594 126.906
 c 451.047 126.312 450.773 125.418 450.773 124.238 c 450.773 123.211 451
 122.379 451.449 121.738 c 451.898 121.094 452.633 120.773 453.645 120.773
 c 454.426 120.773 455.066 121 455.578 121.449 c 456.086 121.902 456.348
 122.633 456.359 123.637 c 453.664 123.637 l 453.664 124.605 l 457.445 124.605
 l 457.445 120 l 456.695 120 l 456.414 121.105 l 456.02 120.676 455.668 
120.375 455.363 120.207 c 454.852 119.918 454.199 119.773 453.414 119.773
 c 452.395 119.773 451.516 120.102 450.781 120.762 c 449.98 121.59 449.582
 122.727 449.582 124.172 c 449.582 125.613 449.969 126.762 450.75 127.613
 c 451.492 128.426 452.457 128.832 453.637 128.832 c 454.445 128.832 455.145
 128.676 455.73 128.363 c h
460.508 128.605 m 460.508 123.289 l 460.508 122.664 460.625 122.145 460.859
 121.73 c 461.207 121.105 461.793 120.793 462.617 120.793 c 463.605 120.793
 464.277 121.129 464.633 121.805 c 464.824 122.172 464.918 122.668 464.918
 123.289 c 464.918 128.605 l 466.102 128.605 l 466.102 123.773 l 466.102
 122.715 465.961 121.898 465.676 121.332 c 465.152 120.293 464.164 119.773
 462.711 119.773 c 461.258 119.773 460.27 120.293 459.75 121.332 c 459.469
 121.898 459.324 122.715 459.324 123.773 c 459.324 128.605 l h
468.164 128.605 m 469.34 128.605 l 469.34 120 l 468.164 120 l h
468.164 128.605 m f
  Q
Q
  Q
Q
  Q
Q
q
0 307 562 -307 re W n
  q
q
0 307 562 -307 re W n
  q
1 g
518.5 146.5 m 518.5 143.738 516.262 141.5 513.5 141.5 c 510.738 141.5 508.5
 143.738 508.5 146.5 c 508.5 149.262 510.738 151.5 513.5 151.5 c 516.262
 151.5 518.5 149.262 518.5 146.5 c h
518.5 146.5 m f
0 g
1 w
0 J
0 j
[] 0.0 d
10 M 518.5 146.5 m 518.5 143.738 516.262 141.5 513.5 141.5 c 510.738 141.5 508.5
 143.738 508.5 146.5 c 508.5 149.262 510.738 151.5 513.5 151.5 c 516.262
 151.5 518.5 149.262 518.5 146.5 c h
518.5 146.5 m S
513 142 m 513 91 l S
  Q
Q
  Q
Q
q
0 307 562 -307 re W n
  q
q
0 307 562 -307 re W n
  q
Q q
516 130 32 -14 re W n
q
516 130 32 -14 re W n
  q
0 g
518.023 128.605 m 521.898 128.605 l 522.664 128.605 523.281 128.391 523.75
 127.961 c 524.219 127.527 524.453 126.922 524.453 126.141 c 524.453 125.469
 524.242 124.883 523.824 124.387 c 523.406 123.887 522.766 123.637 521.898
 123.637 c 519.191 123.637 l 519.191 120 l 518.023 120 l h
522.57 127.426 m 522.312 127.543 521.961 127.605 521.512 127.605 c 519.191
 127.605 l 519.191 124.625 l 521.512 124.625 l 522.035 124.625 522.461 124.734
 522.785 124.957 c 523.113 125.18 523.273 125.574 523.273 126.137 c 523.273
 126.77 523.039 127.199 522.57 127.426 c h
525.801 126.273 m 526.805 126.273 l 526.805 125.191 l 526.887 125.402 527.086
 125.66 527.406 125.961 c 527.73 126.266 528.098 126.418 528.516 126.418
 c 528.535 126.418 528.566 126.414 528.613 126.41 c 528.664 126.406 528.742
 126.398 528.855 126.387 c 528.855 125.273 l 528.793 125.285 528.734 125.293
 528.684 125.297 c 528.629 125.301 528.57 125.305 528.508 125.305 c 527.977
 125.305 527.57 125.133 527.285 124.789 c 527 124.449 526.855 124.055 526.855
 123.609 c 526.855 120 l 525.801 120 l h
533.688 121.473 m 533.945 122.004 534.074 122.594 534.074 123.242 c 534.074
 123.824 533.984 124.305 533.793 124.668 c 533.5 125.25 532.988 125.539 
532.262 125.539 c 531.613 125.539 531.145 125.293 530.852 124.801 c 530.562
 124.305 530.414 123.711 530.414 123.02 c 530.414 122.352 530.562 121.793
 530.852 121.348 c 531.145 120.902 531.613 120.68 532.25 120.68 c 532.945
 120.68 533.426 120.945 533.688 121.473 c h
534.34 125.648 m 534.898 125.109 535.176 124.316 535.176 123.27 c 535.176
 122.258 534.93 121.422 534.438 120.762 c 533.945 120.102 533.184 119.773
 532.148 119.773 c 531.285 119.773 530.602 120.062 530.094 120.648 c 529.582
 121.23 529.332 122.016 529.332 123 c 529.332 124.055 529.598 124.895 530.133
 125.52 c 530.668 126.145 531.387 126.457 532.289 126.457 c 533.098 126.457
 533.781 126.188 534.34 125.648 c h
535.832 126.273 m 537.195 126.273 l 538.637 124.066 l 540.098 126.273 l
 541.383 126.246 l 539.266 123.219 l 541.477 120 l 540.125 120 l 538.57 
122.355 l 537.055 120 l 535.719 120 l 537.93 123.219 l h
546.352 126.273 m 547.516 126.273 l 547.367 125.875 547.039 124.957 546.523
 123.523 c 546.145 122.445 545.82 121.562 545.562 120.887 c 544.957 119.281
 544.523 118.305 544.273 117.957 c 544.023 117.605 543.594 117.43 542.988
 117.43 c 542.836 117.43 542.723 117.434 542.645 117.445 c 542.562 117.457
 542.465 117.48 542.348 117.512 c 542.348 118.473 l 542.531 118.422 542.664
 118.391 542.746 118.379 c 542.828 118.367 542.898 118.359 542.961 118.359
 c 543.156 118.359 543.301 118.391 543.395 118.457 c 543.484 118.52 543.562
 118.602 543.625 118.695 c 543.645 118.727 543.715 118.887 543.836 119.176
 c 543.957 119.465 544.043 119.68 544.102 119.82 c 541.781 126.277 l 542.977
 126.277 l 544.656 121.168 l 546.352 126.277 l h
546.352 126.273 m f
  Q
Q
  Q
Q
  Q
Q
q
0 307 562 -307 re W n
  q
q
0 307 562 -307 re W n
  q
0 g
1 w
0 J
0 j
[] 0.0 d
10 M 407.5 156.5 m 407.5 215.5 l S
415.5 148.5 m 415.5 153.832 412.832 156.5 407.5 156.5 c 402.168 156.5 399.5
 153.832 399.5 148.5 c S
  Q
Q
  Q
Q
Q Q
showpage
%%Trailer
end restore
%%EOF
